{
  "score": 5.0,
  "md5hash": "9cbec3ca5dc10c3390b13d11147df2e6",
  "results": [{
    "desc": "application is debuggable",
    "sourceStmt": "",
    "custom": "",
    "vulnKind": 3,
    "destMethod": "",
    "paths": [],
    "destStmt": "",
    "sourceMethod": ""
  }]
}