{
  "score": 5.0,
  "md5hash": "5ffd7a311e15eb854f2cacea83bf2a38",
  "results": [{
    "desc": "application is debuggable",
    "sourceStmt": "",
    "custom": "",
    "vulnKind": 3,
    "destMethod": "",
    "paths": [],
    "destStmt": "",
    "sourceMethod": ""
  }]
}