Application Name: WebView-NoUserPermission-InformationExposure-Lean-secure.apk
Uses Permissions: android.permission.INTERNET, android.permission.ACCESS_FINE_LOCATION, android.permission.ACCESS_COARSE_LOCATION

Component edu.ksu.cs.benign.MainActivity
  Component type: activity
  Exported: true
  Dynamic Registered: false
  Required Permission: 
  IntentFilters:
    IntentFilter:(Actions:["android.intent.action.MAIN"],Categories:["android.intent.category.LAUNCHER"])

  Inter-component communication (ICC) Result:



Taint analysis result:
  Sources found:
    <Descriptors: api_source: Landroid/location/LocationManager;.getLastKnownLocation:(Ljava/lang/String;)Landroid/location/Location;>
    <Descriptors: api_source: Landroid/location/LocationManager;.getLastKnownLocation:(Ljava/lang/String;)Landroid/location/Location;>
  Sinks found:
    <Descriptors: api_sink: Landroid/util/Log;.d:(Ljava/lang/String;Ljava/lang/String;)I 0>
    <Descriptors: api_sink: Landroid/util/Log;.d:(Ljava/lang/String;Ljava/lang/String;)I 1>
    <Descriptors: api_sink: Landroid/util/Log;.d:(Ljava/lang/String;Ljava/lang/String;)I 1>
    <Descriptors: api_sink: Landroid/util/Log;.d:(Ljava/lang/String;Ljava/lang/String;)I 1>
    <Descriptors: api_sink: Landroid/util/Log;.d:(Ljava/lang/String;Ljava/lang/String;)I 0>
    <Descriptors: api_sink: Landroid/util/Log;.d:(Ljava/lang/String;Ljava/lang/String;)I 0>
  Discovered taint paths are listed below:
