A,activity,android:exported
A,application,android:allowBackup
A,application,android:debuggable
A,intent-filter,action,
A,permission,android:protectionLevel
A,permission,android:protectionLevel=0x1
A,permission,android:protectionLevel=0x2
A,provider,android:exported
A,provider,android:permission
A,provider,android:writePermission
A,receiver,android:exported
A,service,android:exported
A,uses-permission,android:name=android.permission.ACCESS_COARSE_LOCATION
A,uses-permission,android:name=android.permission.ACCESS_FINE_LOCATION
A,uses-permission,android:name=android.permission.CALL_PHONE
A,uses-permission,android:name=android.permission.INTERNET
A,uses-permission,android:name=android.permission.PROCESS_OUTGOING_CALLS
E,uses-permission
M,android/app/Activity,getIntent,()Landroid/content/Intent;
M,android/app/Activity,onActivityResult,(IILandroid/content/Intent;)V
M,android/app/Activity,onRequestPermissionsResult,(I[Ljava/lang/String;[I)V
M,android/app/Activity,requestPermissions,([Ljava/lang/String;I)V
M,android/app/Activity,setResult,(I)V
M,android/app/Activity,setResult,(ILandroid/content/Intent;)V
M,android/app/IntentService,onHandleIntent,(Landroid/content/Intent;)V
M,android/app/PendingIntent,getService,(Landroid/content/Context;ILandroid/content/Intent;I)Landroid/app/PendingIntent;
M,android/app/Service,onBind,(Landroid/content/Intent;)Landroid/os/IBinder;
M,android/content/BroadcastReceiver,onReceive,(Landroid/content/Context;Landroid/content/Intent;)V
M,android/content/BroadcastReceiver,setResultData,(Ljava/lang/String;)V
M,android/content/ContentProvider,call,(Ljava/lang/String;Ljava/lang/String;Landroid/os/Bundle;)Landroid/os/Bundle;
M,android/content/ContentProvider,delete,(Landroid/net/Uri;Ljava/lang/String;[Ljava/lang/String;)I
M,android/content/ContentProvider,insert,(Landroid/net/Uri;Landroid/content/ContentValues;)Landroid/net/Uri;
M,android/content/ContentProvider,update,(Landroid/net/Uri;Landroid/content/ContentValues;Ljava/lang/String;[Ljava/lang/String;)I
M,android/content/ContentResolver,insert,(Landroid/net/Uri;Landroid/content/ContentValues;)Landroid/net/Uri;
M,android/content/ContentResolver,openInputStream,(Landroid/net/Uri;)Ljava/io/InputStream;
M,android/content/Context,checkPermission,(Ljava/lang/String;II)I
M,android/content/Context,getFilesDir,()Ljava/io/File;
M,android/content/Context,openFileInput,(Ljava/lang/String;)Ljava/io/FileInputStream;
M,android/content/Context,openFileOutput,(Ljava/lang/String;I)Ljava/io/FileOutputStream;
M,android/content/Context,sendBroadcast,(Landroid/content/Intent;)V
M,android/content/Context,unregisterReceiver,(Landroid/content/BroadcastReceiver;)V
M,android/content/Intent,getAction,()Ljava/lang/String;
M,android/content/Intent,getIntExtra,(Ljava/lang/String;I)I
M,android/content/Intent,getStringExtra,(Ljava/lang/String;)Ljava/lang/String;
M,android/content/Intent,putExtra,(Ljava/lang/String;Landroid/os/Bundle;)Landroid/content/Intent;
M,android/content/Intent,putExtra,(Ljava/lang/String;Ljava/lang/String;)Landroid/content/Intent;
M,android/content/Intent,putExtra,(Ljava/lang/String;[Ljava/lang/String;)Landroid/content/Intent;
M,android/content/Intent,setAction,(Ljava/lang/String;)Landroid/content/Intent;
M,android/content/Intent,setData,(Landroid/net/Uri;)Landroid/content/Intent;
M,android/content/IntentFilter,<init>,()V
M,android/content/IntentFilter,addAction,(Ljava/lang/String;)V
M,android/database/sqlite/SQLiteDatabase,execSQL,(Ljava/lang/String;)V
M,android/database/sqlite/SQLiteDatabase,insert,(Ljava/lang/String;Ljava/lang/String;Landroid/content/ContentValues;)J
M,android/database/sqlite/SQLiteDatabase,query,(Ljava/lang/String;[Ljava/lang/String;Ljava/lang/String;[Ljava/lang/String;Ljava/lang/String;Ljava/lang/String;Ljava/lang/String;)Landroid/database/Cursor;
M,android/location/Location,getLatitude,()D
M,android/location/LocationListener,onLocationChanged,(Landroid/location/Location;)V
M,android/location/LocationListener,onStatusChanged,(Ljava/lang/String;ILandroid/os/Bundle;)V
M,android/location/LocationManager,getLastKnownLocation,(Ljava/lang/String;)Landroid/location/Location;
M,android/webkit/WebResourceRequest,getUrl,()Landroid/net/Uri;
M,android/webkit/WebSettings,setJavaScriptEnabled,(Z)V
M,android/webkit/WebView,loadUrl,(Ljava/lang/String;)V
M,android/webkit/WebView,setWebViewClient,(Landroid/webkit/WebViewClient;)V
M,android/webkit/WebViewClient,<init>,()V
M,java/net/ServerSocket,<init>,(I)V
M,java/net/ServerSocket,accept,()Ljava/net/Socket;
M,java/net/Socket,getInputStream,()Ljava/io/InputStream;
M,java/net/Socket,getOutputStream,()Ljava/io/OutputStream;
M,java/net/Socket,isConnected,()Z
M,java/security/SecureRandom,<init>,()V
M,javax/crypto/Cipher,doFinal,(B[B)[
M,javax/crypto/Cipher,getBlockSize,()I
M,javax/crypto/Cipher,getInstance,(Ljava/lang/String;)Ljavax/crypto/Cipher;
M,javax/crypto/Cipher,init,(ILjava/security/Key;Ljava/security/spec/AlgorithmParameterSpec;)V
M,javax/crypto/SecretKey,getEncoded,(B)[
M,javax/crypto/spec/IvParameterSpec,<init>,([B)V
M,javax/crypto/spec/PBEKeySpec,<init>,([C[BII)V
M,javax/crypto/spec/SecretKeySpec,<init>,([BLjava/lang/String;)V
