,Crypto F-Score,Crypto Precision,Crypto Recall,Crypto Informedness,Crypto Markedness,ICC F-Score,ICC Precision,ICC Recall,ICC Informedness,ICC Markedness,Net F-Score,Net Precision,Net Recall,Net Informedness,Net Markedness,Perm F-Score,Perm Precision,Perm Recall,Perm Informedness,Perm Markedness,Store F-Score,Store Precision,Store Recall,Store Informedness,Store Markedness,Sys F-Score,Sys Precision,Sys Recall,Sys Informedness,Sys Markedness,Web F-Score,Web Precision,Web Recall,Web Informedness,Web Markedness,All F-Score,All Precision,All Recall,All Informedness,All Markedness
Amandroid1,   NA,   NA,   NA,   NA,   NA,   NA,   NA,0.000,0.000,   NA,   NA,   NA,0.000,0.000,   NA,   NA,   NA,   NA,   NA,   NA,0.500,0.500,0.500,0.000,0.000,   NA,   NA,   NA,   NA,   NA,   NA,   NA,0.000,0.000,   NA,0.118,0.500,0.067,0.000,0.000
Amandroid2,   NA,   NA,   NA,   NA,   NA,   NA,   NA,   NA,   NA,   NA,   NA,   NA,   NA,   NA,   NA,   NA,   NA,0.000,0.000,   NA,   NA,   NA,0.000,0.000,   NA,   NA,   NA,   NA,   NA,   NA,   NA,   NA,   NA,   NA,   NA,   NA,   NA,0.000,0.000,   NA
Amandroid3,   NA,   NA,   NA,   NA,   NA,   NA,   NA,0.000,0.000,   NA,   NA,   NA,0.000,0.000,   NA,   NA,   NA,   NA,   NA,   NA,   NA,   NA,0.000,0.000,   NA,   NA,   NA,   NA,   NA,   NA,   NA,   NA,0.000,0.000,   NA,   NA,   NA,0.000,0.000,   NA
Amandroid4,   NA,   NA,   NA,   NA,   NA,   NA,   NA,0.000,0.000,   NA,   NA,   NA,   NA,   NA,   NA,   NA,   NA,   NA,   NA,   NA,   NA,   NA,   NA,   NA,   NA,   NA,   NA,   NA,   NA,   NA,   NA,   NA,   NA,   NA,   NA,   NA,   NA,0.000,0.000,   NA
Amandroid6,   NA,   NA,   NA,   NA,   NA,   NA,   NA,   NA,   NA,   NA,   NA,   NA,   NA,   NA,   NA,   NA,   NA,   NA,   NA,   NA,   NA,   NA,   NA,   NA,   NA,   NA,   NA,   NA,   NA,   NA,   NA,   NA,0.000,0.000,   NA,   NA,   NA,0.000,0.000,   NA
Amandroid7,1.000,1.000,1.000,1.000,1.000,   NA,   NA,   NA,   NA,   NA,   NA,   NA,   NA,   NA,   NA,   NA,   NA,   NA,   NA,   NA,   NA,   NA,   NA,   NA,   NA,   NA,   NA,   NA,   NA,   NA,   NA,   NA,   NA,   NA,   NA,1.000,1.000,1.000,1.000,1.000
AndroBugs,   NA,   NA,0.000,0.000,   NA,0.222,1.000,0.125,0.125,0.533,   NA,   NA,0.000,0.000,   NA,1.000,1.000,1.000,1.000,1.000,   NA,   NA,0.000,0.000,   NA,1.000,1.000,1.000,1.000,1.000,0.615,1.000,0.444,0.444,0.643,0.415,1.000,0.262,0.262,0.575
AppCritique,0.667,1.000,0.500,0.500,0.667,   NA,   NA,0.000,0.000,   NA,   NA,   NA,0.000,0.000,   NA,   NA,   NA,0.000,0.000,   NA,0.667,1.000,0.500,0.500,0.667,   NA,   NA,0.000,0.000,   NA,0.364,1.000,0.222,0.222,0.562,0.286,1.000,0.167,0.167,0.545
COVERT,   NA,   NA,0.000,0.000,   NA,   NA,   NA,0.000,0.000,   NA,   NA,   NA,0.000,0.000,   NA,   NA,   NA,0.000,0.000,   NA,   NA,   NA,0.000,0.000,   NA,   NA,   NA,0.000,0.000,   NA,   NA,   NA,0.000,0.000,   NA,   NA,   NA,0.000,0.000,   NA
DIALDroid,   NA,   NA,0.000,0.000,   NA,   NA,   NA,0.000,0.000,   NA,   NA,   NA,0.000,0.000,   NA,   NA,   NA,0.000,0.000,   NA,   NA,   NA,0.000,0.000,   NA,   NA,   NA,0.000,0.000,   NA,   NA,   NA,0.000,0.000,   NA,   NA,   NA,0.000,0.000,   NA
DevKnox,0.400,1.000,0.250,0.250,0.571,   NA,   NA,0.000,0.000,   NA,   NA,   NA,0.000,0.000,   NA,   NA,   NA,0.000,0.000,   NA,   NA,   NA,0.000,0.000,   NA,0.667,0.500,1.000,0.000,   NA,   NA,   NA,0.000,0.000,   NA,0.196,0.556,0.119,0.024,0.062
FixDroid,0.400,1.000,0.250,   NA,0.000,0.133,1.000,0.071,   NA,0.000,   NA,   NA,0.000,   NA,   NA,   NA,   NA,0.000,   NA,   NA,0.333,1.000,0.200,   NA,0.000,1.000,1.000,1.000,   NA,   NA,0.364,1.000,0.222,   NA,0.000,0.375,1.000,0.231,   NA,0.000
FlowDroid,   NA,   NA,   NA,   NA,   NA,   NA,   NA,0.000,0.000,   NA,   NA,   NA,0.000,0.000,   NA,   NA,   NA,   NA,   NA,   NA,   NA,   NA,0.000,0.000,   NA,   NA,   NA,   NA,   NA,   NA,   NA,   NA,   NA,   NA,   NA,   NA,   NA,0.000,0.000,   NA
HornDroid,   NA,   NA,0.000,0.000,   NA,0.118,1.000,0.062,0.062,0.516,   NA,   NA,0.000,0.000,   NA,   NA,   NA,   NA,   NA,   NA,   NA,   NA,0.000,0.000,   NA,   NA,   NA,   NA,   NA,   NA,   NA,   NA,0.000,0.000,   NA,0.053,1.000,0.027,0.027,0.507
JAADS,   NA,   NA,0.000,0.000,   NA,0.222,1.000,0.125,0.125,0.533,   NA,   NA,0.000,0.000,   NA,   NA,   NA,0.000,0.000,   NA,   NA,   NA,0.000,0.000,   NA,   NA,   NA,0.000,0.000,   NA,0.615,1.000,0.444,0.444,0.643,0.250,1.000,0.143,0.143,0.538
MalloDroid,   NA,   NA,   NA,   NA,   NA,   NA,   NA,   NA,   NA,   NA,   NA,   NA,   NA,   NA,   NA,   NA,   NA,   NA,   NA,   NA,   NA,   NA,   NA,   NA,   NA,   NA,   NA,   NA,   NA,   NA,   NA,   NA,0.000,0.000,   NA,   NA,   NA,0.000,0.000,   NA
Marvin-SA,0.400,1.000,0.250,0.250,0.571,0.476,1.000,0.312,0.312,0.593,   NA,   NA,0.000,0.000,   NA,0.667,0.500,1.000,0.000,   NA,   NA,   NA,0.000,0.000,   NA,1.000,1.000,1.000,1.000,1.000,0.615,1.000,0.444,0.444,0.643,0.517,0.938,0.357,0.333,0.540
MOBSF,0.400,1.000,0.250,0.250,0.571,0.316,1.000,0.188,0.188,0.552,   NA,   NA,0.000,0.000,   NA,1.000,1.000,1.000,1.000,1.000,0.286,1.000,0.167,0.167,0.545,1.000,1.000,1.000,1.000,1.000,0.500,1.000,0.333,0.333,0.600,0.473,1.000,0.310,0.310,0.592
Qark,1.000,1.000,1.000,1.000,1.000,0.316,1.000,0.188,0.188,0.552,   NA,   NA,0.000,0.000,   NA,1.000,1.000,1.000,1.000,1.000,   NA,   NA,0.000,0.000,   NA,1.000,1.000,1.000,1.000,1.000,0.364,1.000,0.222,0.222,0.562,0.500,1.000,0.333,0.333,0.600
