A,permission,android:protectionLevel=0x1
A,provider,android:writePermission
A,uses-permission,android:name=android.permission.CALL_PHONE
M,android/app/AlertDialog$Builder,<init>,(Landroid/content/Context;)V
M,android/app/AlertDialog$Builder,setMessage,(Ljava/lang/CharSequence;)Landroid/app/AlertDialog$Builder;
M,android/app/AlertDialog$Builder,setNegativeButton,(Ljava/lang/CharSequence;Landroid/content/DialogInterface$OnClickListener;)Landroid/app/AlertDialog$Builder;
M,android/app/AlertDialog$Builder,setPositiveButton,(Ljava/lang/CharSequence;Landroid/content/DialogInterface$OnClickListener;)Landroid/app/AlertDialog$Builder;
M,android/app/AlertDialog$Builder,setTitle,(Ljava/lang/CharSequence;)Landroid/app/AlertDialog$Builder;
M,android/app/AlertDialog$Builder,show,()Landroid/app/AlertDialog;
M,android/app/Service,onDestroy,()V
M,android/content/BroadcastReceiver,getResultData,()Ljava/lang/String;
M,android/content/BroadcastReceiver,setResultData,(Ljava/lang/String;)V
M,android/content/ContentProvider,call,(Ljava/lang/String;Ljava/lang/String;Landroid/os/Bundle;)Landroid/os/Bundle;
M,android/content/ContentResolver,call,(Landroid/net/Uri;Ljava/lang/String;Ljava/lang/String;Landroid/os/Bundle;)Landroid/os/Bundle;
M,android/content/Context,checkSelfPermission,(Ljava/lang/String;)I
M,android/content/DialogInterface$OnClickListener,onClick,(Landroid/content/DialogInterface;I)V
M,android/content/DialogInterface,cancel,()V
M,android/content/Intent,getExtras,()Landroid/os/Bundle;
M,android/content/Intent,getParcelableExtra,(Ljava/lang/String;)Landroid/os/Parcelable;
M,android/content/Intent,putExtras,(Landroid/os/Bundle;)Landroid/content/Intent;
M,android/content/Intent,setClassName,(Ljava/lang/String;Ljava/lang/String;)Landroid/content/Intent;
M,android/database/sqlite/SQLiteDatabase,query,(Ljava/lang/String;[Ljava/lang/String;Ljava/lang/String;[Ljava/lang/String;Ljava/lang/String;Ljava/lang/String;Ljava/lang/String;)Landroid/database/Cursor;
M,android/location/LocationListener,onLocationChanged,(Landroid/location/Location;)V
M,android/location/LocationListener,onProviderDisabled,(Ljava/lang/String;)V
M,android/location/LocationListener,onProviderEnabled,(Ljava/lang/String;)V
M,android/location/LocationListener,onStatusChanged,(Ljava/lang/String;ILandroid/os/Bundle;)V
M,android/location/LocationManager,removeUpdates,(Landroid/location/LocationListener;)V
M,android/location/LocationManager,requestLocationUpdates,(Ljava/lang/String;JFLandroid/location/LocationListener;)V
M,android/os/BaseBundle,getCharSequence,(Ljava/lang/String;)Ljava/lang/CharSequence;
M,android/os/BaseBundle,putCharSequence,(Ljava/lang/String;Ljava/lang/CharSequence;)V
M,android/widget/ImageView,setImageBitmap,(Landroid/graphics/Bitmap;)V
M,java/io/BufferedOutputStream,<init>,(Ljava/io/OutputStream;)V
M,java/io/FileWriter,<init>,(Ljava/io/File;)V
M,java/io/InputStream,read,()I
M,java/io/OutputStream,write,(I)V
M,java/io/Writer,append,(Ljava/lang/CharSequence;)Ljava/io/Writer;
M,java/lang/String,toCharArray,(C)[
M,java/lang/StringBuffer,append,(C)Ljava/lang/StringBuffer;
M,java/net/InetSocketAddress,<init>,(Ljava/lang/String;I)V
M,java/net/ServerSocket,<init>,(I)V
M,java/net/ServerSocket,accept,()Ljava/net/Socket;
M,java/net/Socket,<init>,()V
M,java/net/Socket,connect,(Ljava/net/SocketAddress;)V
M,java/net/Socket,getInputStream,()Ljava/io/InputStream;
M,java/net/Socket,getOutputStream,()Ljava/io/OutputStream;
M,java/net/Socket,isConnected,()Z
M,java/security/SecureRandom,<init>,()V
M,java/util/Random,nextBytes,([B)V
M,javax/crypto/Cipher,getBlockSize,()I
M,javax/crypto/SecretKey,getEncoded,(B)[
M,javax/crypto/SecretKeyFactory,generateSecret,(Ljava/security/spec/KeySpec;)Ljavax/crypto/SecretKey;
M,javax/crypto/SecretKeyFactory,getInstance,(Ljava/lang/String;)Ljavax/crypto/SecretKeyFactory;
M,javax/crypto/spec/PBEKeySpec,<init>,([C[BII)V
