A,intent-filter,action,
A,uses-permission,android:name=android.permission.GET_TASKS
M,android/app/Activity,getTitle,()Ljava/lang/CharSequence;
M,android/app/Dialog,<init>,(Landroid/content/Context;I)V
M,android/os/Handler,removeCallbacksAndMessages,(Ljava/lang/Object;)V
M,android/os/Handler,postAtTime,(Ljava/lang/Runnable;Ljava/lang/Object;J)Z
M,android/widget/Checkable,setChecked,(Z)V
F,android/content/res/Configuration,keyboard,I
M,android/content/pm/PackageManager,queryIntentActivityOptions,(Landroid/content/ComponentName;[Landroid/content/Intent;Landroid/content/Intent;I)Ljava/util/List;
F,android/content/pm/ResolveInfo,specificIndex,I
F,android/content/pm/ComponentInfo,applicationInfo,Landroid/content/pm/ApplicationInfo;
M,android/os/BaseBundle,getInt,(Ljava/lang/String;)I
M,android/app/Dialog,show,()V
M,android/content/res/Resources$Theme,obtainStyledAttributes,([I)Landroid/content/res/TypedArray;
M,android/view/View,drawableHotspotChanged,(FF)V
M,android/content/Context,getMainLooper,()Landroid/os/Looper;
M,android/os/Handler,<init>,(Landroid/os/Looper;)V
E,action
M,android/os/Parcel,readValue,(Ljava/lang/ClassLoader;)Ljava/lang/Object;
M,android/os/Parcel,writeValue,(Ljava/lang/Object;)V
M,android/content/Intent,setData,(Landroid/net/Uri;)Landroid/content/Intent;
M,android/content/Intent,putExtra,(Ljava/lang/String;Ljava/lang/CharSequence;)Landroid/content/Intent;
M,android/content/Intent,putExtra,(Ljava/lang/String;Landroid/os/Bundle;)Landroid/content/Intent;
M,android/content/Intent,putExtra,(Ljava/lang/String;I)Landroid/content/Intent;
M,android/app/SearchableInfo,getSearchActivity,()Landroid/content/ComponentName;
M,android/text/SpannableStringBuilder,<init>,(Ljava/lang/CharSequence;)V
M,android/text/style/ImageSpan,<init>,(Landroid/graphics/drawable/Drawable;)V
M,android/text/Spannable,setSpan,(Ljava/lang/Object;III)V
M,android/text/SpannableStringBuilder,append,(Ljava/lang/CharSequence;)Landroid/text/SpannableStringBuilder;
M,android/app/SearchableInfo,getVoiceSearchEnabled,()Z
M,android/app/SearchableInfo,getVoiceSearchLaunchWebSearch,()Z
M,android/content/pm/PackageManager,resolveActivity,(Landroid/content/Intent;I)Landroid/content/pm/ResolveInfo;
M,android/app/SearchableInfo,getVoiceSearchLaunchRecognizer,()Z
F,android/content/res/Configuration,orientation,I
M,android/app/SearchableInfo,getSuggestThreshold,()I
M,android/app/SearchableInfo,getImeOptions,()I
M,android/app/SearchableInfo,getInputType,()I
M,android/app/SearchableInfo,getSuggestAuthority,()Ljava/lang/String;
M,android/app/SearchableInfo,getHintId,()I
M,android/text/TextUtils,getTrimmedLength,(Ljava/lang/CharSequence;)I
M,android/content/res/TypedArray,getPositionDescription,()Ljava/lang/String;
M,android/content/res/TypedArray,getDimension,(IF)F
M,android/app/Activity,isFinishing,()Z
M,android/content/res/TypedArray,getValue,(ILandroid/util/TypedValue;)Z
M,android/view/View,setForeground,(Landroid/graphics/drawable/Drawable;)V
F,android/content/res/Configuration,screenLayout,I
M,android/os/BaseBundle,size,()I
M,android/util/TypedValue,complexToDimensionPixelSize,(ILandroid/util/DisplayMetrics;)I
M,android/view/View,setBackgroundColor,(I)V
E,category
M,android/util/SparseBooleanArray,<init>,()V
M,android/util/SparseBooleanArray,clear,()V
M,android/util/SparseBooleanArray,put,(IZ)V
M,android/util/SparseBooleanArray,get,(I)Z
M,android/content/res/Configuration,getLayoutDirection,()I
M,android/util/TypedValue,applyDimension,(IFLandroid/util/DisplayMetrics;)F
M,android/text/SpannableString,<init>,(Ljava/lang/CharSequence;)V
M,android/text/style/TextAppearanceSpan,<init>,(Ljava/lang/String;IILandroid/content/res/ColorStateList;Landroid/content/res/ColorStateList;)V
M,android/text/SpannableStringInternal,setSpan,(Ljava/lang/Object;III)V
M,android/content/pm/ComponentInfo,getIconResource,()I
M,android/content/pm/PackageManager,getDrawable,(Ljava/lang/String;ILandroid/content/pm/ApplicationInfo;)Landroid/graphics/drawable/Drawable;
M,android/content/ComponentName,flattenToShortString,()Ljava/lang/String;
M,android/database/Cursor,getColumnIndex,(Ljava/lang/String;)I
M,android/content/pm/PackageManager,getDefaultActivityIcon,()Landroid/graphics/drawable/Drawable;
M,android/net/Uri$Builder,<init>,()V
M,android/net/Uri,getScheme,()Ljava/lang/String;
M,android/net/Uri$Builder,authority,(Ljava/lang/String;)Landroid/net/Uri$Builder;
M,android/net/Uri$Builder,scheme,(Ljava/lang/String;)Landroid/net/Uri$Builder;
M,android/content/Context,getContentResolver,()Landroid/content/ContentResolver;
M,android/content/ContentValues,<init>,()V
M,android/content/ContentResolver,openInputStream,(Landroid/net/Uri;)Ljava/io/InputStream;
M,android/content/ContentValues,put,(Ljava/lang/String;Ljava/lang/String;)V
M,android/net/Uri$Builder,build,()Landroid/net/Uri;
M,android/net/Uri,parse,(Ljava/lang/String;)Landroid/net/Uri;
M,android/content/ContentResolver,insert,(Landroid/net/Uri;Landroid/content/ContentValues;)Landroid/net/Uri;
M,android/database/Cursor,getExtras,()Landroid/os/Bundle;
M,android/app/Activity,getApplication,()Landroid/app/Application;
M,android/content/ContentProvider,<init>,()V
M,android/net/Uri,getAuthority,()Ljava/lang/String;
M,android/content/ContentValues,keySet,()Ljava/util/Set;
M,android/content/ContentValues,get,(Ljava/lang/String;)Ljava/lang/Object;
M,android/content/ContentProvider,getContext,()Landroid/content/Context;
M,java/lang/String,getBytes,(B)[
M,java/io/OutputStream,write,([B)V
M,java/io/InputStreamReader,<init>,(Ljava/io/InputStream;)V
M,java/io/BufferedReader,<init>,(Ljava/io/Reader;)V
M,android/os/BaseBundle,getBoolean,(Ljava/lang/String;)Z
M,android/database/MatrixCursor,<init>,([Ljava/lang/String;)V
M,android/app/SearchableInfo,shouldRewriteQueryFromData,()Z
M,java/io/BufferedReader,readLine,()Ljava/lang/String;
M,android/app/SearchableInfo,shouldRewriteQueryFromText,()Z
M,android/database/MatrixCursor,addRow,([Ljava/lang/Object;)V
M,java/security/SecureRandom,<init>,()V
M,android/content/pm/PackageManager,getResourcesForApplication,(Ljava/lang/String;)Landroid/content/res/Resources;
M,android/net/Uri,getPathSegments,()Ljava/util/List;
M,java/util/Random,nextBytes,([B)V
M,java/lang/String,toCharArray,(C)[
M,javax/crypto/spec/PBEKeySpec,<init>,([C[BII)V
M,javax/crypto/SecretKeyFactory,getInstance,(Ljava/lang/String;)Ljavax/crypto/SecretKeyFactory;
M,android/net/Uri$Builder,query,(Ljava/lang/String;)Landroid/net/Uri$Builder;
M,javax/crypto/SecretKeyFactory,generateSecret,(Ljava/security/spec/KeySpec;)Ljavax/crypto/SecretKey;
M,android/net/Uri$Builder,fragment,(Ljava/lang/String;)Landroid/net/Uri$Builder;
M,javax/crypto/SecretKey,getEncoded,(B)[
M,javax/crypto/spec/SecretKeySpec,<init>,([BLjava/lang/String;)V
M,javax/crypto/Cipher,getInstance,(Ljava/lang/String;)Ljavax/crypto/Cipher;
M,javax/crypto/Cipher,getBlockSize,()I
M,javax/crypto/spec/IvParameterSpec,<init>,([B)V
M,javax/crypto/Cipher,init,(ILjava/security/Key;Ljava/security/spec/AlgorithmParameterSpec;)V
M,android/util/Base64,encodeToString,([BI)Ljava/lang/String;
M,javax/crypto/Cipher,doFinal,(B[B)[
M,android/app/SearchableInfo,getSuggestPath,()Ljava/lang/String;
M,android/net/Uri$Builder,appendEncodedPath,(Ljava/lang/String;)Landroid/net/Uri$Builder;
M,android/net/Uri$Builder,appendPath,(Ljava/lang/String;)Landroid/net/Uri$Builder;
M,android/app/SearchableInfo,getSuggestSelection,()Ljava/lang/String;
M,android/net/Uri$Builder,appendQueryParameter,(Ljava/lang/String;Ljava/lang/String;)Landroid/net/Uri$Builder;
M,android/content/ContentResolver,query,(Landroid/net/Uri;[Ljava/lang/String;Ljava/lang/String;[Ljava/lang/String;Ljava/lang/String;)Landroid/database/Cursor;
E,uses-permission
M,android/os/Handler,removeMessages,(I)V
F,android/app/Activity,mResumed,Z
M,android/app/Activity,getLastNonConfigurationInstance,()Ljava/lang/Object;
M,android/os/BaseBundle,containsKey,(Ljava/lang/String;)Z
M,android/os/Bundle,getIntArray,(ILjava/lang/String;)[
M,android/os/Bundle,getStringArray,(Ljava/lang/String;Ljava/lang/String;)[
M,android/os/Handler,hasMessages,(I)Z
M,android/os/Handler,sendEmptyMessage,(I)Z
M,android/os/BaseBundle,putIntArray,(Ljava/lang/String;[I)V
M,android/os/BaseBundle,putStringArray,(Ljava/lang/String;[Ljava/lang/String;)V
M,android/content/ComponentName,<init>,(Landroid/content/Context;Ljava/lang/Class;)V
F,android/content/pm/ActivityInfo,configChanges,I
F,android/content/res/Configuration,uiMode,I
M,android/app/Activity,recreate,()V
M,android/content/res/Configuration,<init>,(Landroid/content/res/Configuration;)V
F,android/app/Activity,mEatKeyUpEvent,Z
M,android/app/UiModeManager,getNightMode,()I
M,android/content/Context,startService,(Landroid/content/Intent;)Landroid/content/ComponentName;
M,android/content/Intent,hasExtra,(Ljava/lang/String;)Z
M,android/content/Intent,getStringExtra,(Ljava/lang/String;)Ljava/lang/String;
M,android/content/DialogInterface,cancel,()V
M,android/app/Service,<init>,()V
M,android/location/LocationManager,requestLocationUpdates,(Ljava/lang/String;JFLandroid/location/LocationListener;)V
M,android/app/AlertDialog$Builder,<init>,(Landroid/content/Context;)V
M,android/app/AlertDialog$Builder,setTitle,(Ljava/lang/CharSequence;)Landroid/app/AlertDialog$Builder;
M,android/app/AlertDialog$Builder,setMessage,(Ljava/lang/CharSequence;)Landroid/app/AlertDialog$Builder;
M,android/app/AlertDialog$Builder,setPositiveButton,(Ljava/lang/CharSequence;Landroid/content/DialogInterface$OnClickListener;)Landroid/app/AlertDialog$Builder;
M,android/app/AlertDialog$Builder,setNegativeButton,(Ljava/lang/CharSequence;Landroid/content/DialogInterface$OnClickListener;)Landroid/app/AlertDialog$Builder;
M,android/app/AlertDialog$Builder,show,()Landroid/app/AlertDialog;
M,android/location/LocationManager,removeUpdates,(Landroid/location/LocationListener;)V
M,android/webkit/WebView,loadUrl,(Ljava/lang/String;)V
M,android/webkit/WebViewClient,onPageFinished,(Landroid/webkit/WebView;Ljava/lang/String;)V
M,android/app/Activity,onActivityResult,(IILandroid/content/Intent;)V
M,android/content/Context,checkSelfPermission,(Ljava/lang/String;)I
M,android/app/Activity,requestPermissions,([Ljava/lang/String;I)V
M,android/webkit/WebView,addJavascriptInterface,(Ljava/lang/Object;Ljava/lang/String;)V
M,android/webkit/WebView,getSettings,()Landroid/webkit/WebSettings;
M,android/webkit/WebSettings,setJavaScriptEnabled,(Z)V
M,android/app/Service,onStartCommand,(Landroid/content/Intent;II)I
M,java/lang/Throwable,addSuppressed,(Ljava/lang/Throwable;)V
M,java/net/ServerSocket,<init>,(I)V
M,java/net/ServerSocket,accept,()Ljava/net/Socket;
M,java/net/Socket,getInetAddress,()Ljava/net/InetAddress;
M,java/net/InetAddress,getHostName,()Ljava/lang/String;
M,java/net/Socket,getOutputStream,()Ljava/io/OutputStream;
M,java/io/InputStream,read,()I
M,android/app/Activity,finishAffinity,()V
M,java/io/OutputStream,write,(I)V
M,android/webkit/WebViewClient,onReceivedSslError,(Landroid/webkit/WebView;Landroid/webkit/SslErrorHandler;Landroid/net/http/SslError;)V
M,android/webkit/WebViewClient,<init>,()V
M,android/webkit/SslErrorHandler,cancel,()V
M,android/webkit/WebView,loadData,(Ljava/lang/String;Ljava/lang/String;Ljava/lang/String;)V
M,android/content/Intent,putExtras,(Landroid/os/Bundle;)Landroid/content/Intent;
M,android/content/Intent,setAction,(Ljava/lang/String;)Landroid/content/Intent;
M,android/webkit/WebView,setWebViewClient,(Landroid/webkit/WebViewClient;)V
M,android/content/BroadcastReceiver,onReceive,(Landroid/content/Context;Landroid/content/Intent;)V
M,android/webkit/WebSettings,setAllowFileAccess,(Z)V
M,android/content/Context,getSystemService,(Ljava/lang/Class;)Ljava/lang/Object;
M,android/webkit/WebSettings,setAllowFileAccessFromFileURLs,(Z)V
M,android/content/Intent,getParcelableExtra,(Ljava/lang/String;)Landroid/os/Parcelable;
M,android/widget/ImageView,setImageBitmap,(Landroid/graphics/Bitmap;)V
M,android/content/Intent,getExtras,()Landroid/os/Bundle;
M,android/content/BroadcastReceiver,setResultData,(Ljava/lang/String;)V
M,java/lang/SecurityException,<init>,()V
M,java/net/InetSocketAddress,<init>,(Ljava/lang/String;I)V
M,javax/net/SocketFactory,getDefault,()Ljavax/net/SocketFactory;
M,javax/net/SocketFactory,createSocket,(Ljava/lang/String;I)Ljava/net/Socket;
M,java/net/Socket,connect,(Ljava/net/SocketAddress;)V
M,android/app/AppOpsManager,noteProxyOp,(Ljava/lang/String;Ljava/lang/String;)I
M,java/net/Socket,isConnected,()Z
M,java/net/Socket,getInputStream,()Ljava/io/InputStream;
M,java/lang/StringBuffer,append,(C)Ljava/lang/StringBuffer;
M,android/content/Context,getFilesDir,()Ljava/io/File;
M,java/io/File,<init>,(Ljava/io/File;Ljava/lang/String;)V
M,java/io/File,getAbsolutePath,()Ljava/lang/String;
M,java/io/FileOutputStream,<init>,(Ljava/io/File;)V
M,java/io/InputStream,available,()I
M,java/io/File,getName,()Ljava/lang/String;
M,android/webkit/WebViewClient,shouldOverrideUrlLoading,(Landroid/webkit/WebView;Landroid/webkit/WebResourceRequest;)Z
M,android/app/AppOpsManager,permissionToOp,(Ljava/lang/String;)Ljava/lang/String;
M,android/webkit/WebViewClient,shouldOverrideUrlLoading,(Landroid/webkit/WebView;Ljava/lang/String;)Z
M,javax/crypto/Cipher,init,(ILjava/security/Key;)V
M,javax/crypto/Cipher,getIV,(B)[
M,android/util/Base64,decode,(BLjava/lang/String;I)[
M,java/lang/String,<init>,([BLjava/lang/String;)V
M,android/content/Context,getExternalFilesDir,(Ljava/lang/String;)Ljava/io/File;
M,android/content/Intent,setPackage,(Ljava/lang/String;)Landroid/content/Intent;
M,android/content/Context,sendBroadcast,(Landroid/content/Intent;)V
M,android/app/Activity,onDestroy,()V
M,android/content/pm/PackageManager,checkPermission,(Ljava/lang/String;Ljava/lang/String;)I
F,android/os/Build$VERSION,SDK_INT,I
M,android/os/Looper,getMainLooper,()Landroid/os/Looper;
M,android/content/Context,stopService,(Landroid/content/Intent;)Z
M,android/content/res/TypedArray,getIndexCount,()I
M,android/content/res/TypedArray,getIndex,(I)I
A,application,android:taskAffinity
M,android/os/Parcel,createIntArray,(I)[
M,android/util/SparseIntArray,<init>,()V
M,android/util/SparseIntArray,append,(II)V
M,android/util/SparseIntArray,get,(I)I
M,android/os/Parcel,readInt,()I
M,android/os/Parcel,readString,()Ljava/lang/String;
M,android/app/Activity,setResult,(ILandroid/content/Intent;)V
M,android/content/Intent,parseUri,(Ljava/lang/String;I)Landroid/content/Intent;
M,android/content/Intent,getPackage,()Ljava/lang/String;
M,android/webkit/WebResourceRequest,getUrl,()Landroid/net/Uri;
M,android/net/Uri,toString,()Ljava/lang/String;
M,java/io/File,exists,()Z
F,android/text/TextUtils,CHAR_SEQUENCE_CREATOR,Landroid/os/Parcelable$Creator;
M,java/io/File,mkdir,()Z
M,java/io/FileWriter,<init>,(Ljava/io/File;)V
M,java/io/Writer,append,(Ljava/lang/CharSequence;)Ljava/io/Writer;
M,android/app/Activity,setResult,(I)V
M,android/os/Binder,getCallingPid,()I
M,android/os/Binder,getCallingUid,()I
M,android/content/ContentProvider,call,(Ljava/lang/String;Ljava/lang/String;Landroid/os/Bundle;)Landroid/os/Bundle;
M,android/os/BaseBundle,getCharSequence,(Ljava/lang/String;)Ljava/lang/CharSequence;
M,java/io/BufferedOutputStream,<init>,(Ljava/io/OutputStream;)V
M,android/os/BaseBundle,putCharSequence,(Ljava/lang/String;Ljava/lang/CharSequence;)V
M,android/os/Parcel,createStringArrayList,()Ljava/util/ArrayList;
M,android/content/ContentResolver,call,(Landroid/net/Uri;Ljava/lang/String;Ljava/lang/String;Landroid/os/Bundle;)Landroid/os/Bundle;
M,android/content/IntentFilter,<init>,(Ljava/lang/String;)V
M,android/content/Context,registerReceiver,(Landroid/content/BroadcastReceiver;Landroid/content/IntentFilter;Ljava/lang/String;Landroid/os/Handler;)Landroid/content/Intent;
M,android/database/sqlite/SQLiteOpenHelper,onCreate,(Landroid/database/sqlite/SQLiteDatabase;)V
M,android/database/sqlite/SQLiteOpenHelper,onDowngrade,(Landroid/database/sqlite/SQLiteDatabase;II)V
M,android/database/sqlite/SQLiteOpenHelper,onUpgrade,(Landroid/database/sqlite/SQLiteDatabase;II)V
M,android/database/sqlite/SQLiteOpenHelper,getWritableDatabase,()Landroid/database/sqlite/SQLiteDatabase;
M,android/database/sqlite/SQLiteDatabase,insert,(Ljava/lang/String;Ljava/lang/String;Landroid/content/ContentValues;)J
M,android/database/sqlite/SQLiteOpenHelper,<init>,(Landroid/content/Context;Ljava/lang/String;Landroid/database/sqlite/SQLiteDatabase$CursorFactory;I)V
M,android/database/sqlite/SQLiteDatabase,execSQL,(Ljava/lang/String;)V
M,android/content/Intent,putExtra,(Ljava/lang/String;[Ljava/lang/String;)Landroid/content/Intent;
M,android/database/Cursor,moveToNext,()Z
M,android/content/Intent,getIntExtra,(Ljava/lang/String;I)I
M,android/database/sqlite/SQLiteOpenHelper,getReadableDatabase,()Landroid/database/sqlite/SQLiteDatabase;
M,android/database/sqlite/SQLiteDatabase,rawQuery,(Ljava/lang/String;[Ljava/lang/String;)Landroid/database/Cursor;
M,android/content/UriMatcher,<init>,(I)V
M,android/content/UriMatcher,addURI,(Ljava/lang/String;Ljava/lang/String;I)V
M,android/content/UriMatcher,match,(Landroid/net/Uri;)I
M,java/io/File,getPath,()Ljava/lang/String;
M,java/io/File,<init>,(Ljava/lang/String;)V
M,java/io/FileInputStream,<init>,(Ljava/io/File;)V
M,java/lang/String,split,(Ljava/lang/String;Ljava/lang/String;)[
M,android/database/MatrixCursor,addRow,(Ljava/lang/Iterable;)V
M,android/database/Cursor,moveToFirst,()Z
M,android/content/Intent,setFlags,(I)Landroid/content/Intent;
M,android/database/sqlite/SQLiteDatabase,query,(Ljava/lang/String;[Ljava/lang/String;Ljava/lang/String;[Ljava/lang/String;Ljava/lang/String;Ljava/lang/String;Ljava/lang/String;)Landroid/database/Cursor;
M,android/app/PendingIntent,getService,(Landroid/content/Context;ILandroid/content/Intent;I)Landroid/app/PendingIntent;
M,android/os/Parcel,writeIntArray,([I)V
F,android/os/Message,arg1,I
M,android/os/Handler,<init>,(Landroid/os/Looper;Landroid/os/Handler$Callback;)V
M,android/os/Parcel,writeInt,(I)V
M,android/os/Message,obtain,(Landroid/os/Handler;ILjava/lang/Object;)Landroid/os/Message;
M,android/os/Parcel,writeString,(Ljava/lang/String;)V
M,android/os/Handler,sendMessageDelayed,(Landroid/os/Message;J)Z
M,android/util/StateSet,stateSetMatches,([I[I)Z
A,application,android:allowBackup
M,android/text/TextUtils,writeToParcel,(Ljava/lang/CharSequence;Landroid/os/Parcel;I)V
M,android/os/Parcel,writeStringList,(Ljava/util/List;)V
F,java/lang/Float,TYPE,Ljava/lang/Class;
M,android/content/Context,getClassLoader,()Ljava/lang/ClassLoader;
M,android/content/res/TypedArray,peekValue,(I)Landroid/util/TypedValue;
M,android/os/Trace,beginSection,(Ljava/lang/String;)V
M,android/os/Trace,endSection,()V
M,android/os/BaseBundle,setClassLoader,(Ljava/lang/ClassLoader;)V
M,android/content/Context,createConfigurationContext,(Landroid/content/res/Configuration;)Landroid/content/Context;
A,application,android:debuggable
F,java/util/concurrent/TimeUnit,MILLISECONDS,Ljava/util/concurrent/TimeUnit;
M,android/util/SparseIntArray,size,()I
M,android/util/SparseIntArray,keyAt,(I)I
M,android/util/SparseIntArray,get,(II)I
M,android/util/SparseIntArray,put,(II)V
M,android/util/SparseIntArray,clear,()V
F,java/util/Collections,EMPTY_LIST,Ljava/util/List;
M,android/os/Parcel,readIntArray,([I)V
M,android/os/Parcel,readArrayList,(Ljava/lang/ClassLoader;)Ljava/util/ArrayList;
M,android/os/Parcel,writeList,(Ljava/util/List;)V
M,android/os/Parcel,readFloat,()F
M,android/os/Parcel,readByte,()B
M,android/os/Parcel,writeFloat,(F)V
M,android/os/Parcel,writeByte,(B)V
M,android/os/Parcel,readParcelableArray,(Landroid/os/Parcelable;Ljava/lang/ClassLoader;)[
M,android/util/SparseArray,<init>,(I)V
M,android/os/Parcel,writeParcelableArray,([Landroid/os/Parcelable;I)V
M,android/util/SparseArray,delete,(I)V
M,android/os/Bundle,putParcelable,(Ljava/lang/String;Landroid/os/Parcelable;)V
A,service,android:exported
M,android/os/Bundle,getParcelable,(Ljava/lang/String;)Landroid/os/Parcelable;
A,uses-permission,android:name=android.permission.SEND_SMS
A,receiver,android:permission
M,android/telephony/SmsManager,getDefault,()Landroid/telephony/SmsManager;
M,android/telephony/SmsManager,sendTextMessage,(Ljava/lang/String;Ljava/lang/String;Ljava/lang/String;Landroid/app/PendingIntent;Landroid/app/PendingIntent;)V
M,java/io/InputStreamReader,<init>,(Ljava/io/InputStream;Ljava/lang/String;)V
M,java/io/Reader,read,([C)I
M,java/lang/StringBuffer,append,([CII)Ljava/lang/StringBuffer;
M,java/io/BufferedInputStream,<init>,(Ljava/io/InputStream;)V
M,android/content/Intent,getBooleanExtra,(Ljava/lang/String;Z)Z
M,java/io/File,delete,()Z
M,android/content/Intent,putExtra,(Ljava/lang/String;Z)Landroid/content/Intent;
M,android/content/Intent,setClassName,(Ljava/lang/String;Ljava/lang/String;)Landroid/content/Intent;
M,java/util/Scanner,<init>,(Ljava/io/File;)V
M,java/util/Scanner,hasNextLine,()Z
M,java/util/Scanner,nextLine,()Ljava/lang/String;
M,android/webkit/WebViewClient,shouldInterceptRequest,(Landroid/webkit/WebView;Landroid/webkit/WebResourceRequest;)Landroid/webkit/WebResourceResponse;
M,android/webkit/WebViewClient,shouldInterceptRequest,(Landroid/webkit/WebView;Ljava/lang/String;)Landroid/webkit/WebResourceResponse;
M,android/webkit/WebResourceResponse,<init>,(Ljava/lang/String;Ljava/lang/String;Ljava/io/InputStream;)V
M,android/os/Looper,myLooper,()Landroid/os/Looper;
M,java/io/ByteArrayInputStream,<init>,([B)V
M,android/webkit/WebSettings,setAllowUniversalAccessFromFileURLs,(Z)V
M,android/content/Context,getSharedPreferences,(Ljava/lang/String;I)Landroid/content/SharedPreferences;
M,android/content/SharedPreferences,getString,(Ljava/lang/String;Ljava/lang/String;)Ljava/lang/String;
M,android/content/SharedPreferences,edit,()Landroid/content/SharedPreferences$Editor;
M,android/content/SharedPreferences$Editor,putString,(Ljava/lang/String;Ljava/lang/String;)Landroid/content/SharedPreferences$Editor;
M,android/content/SharedPreferences$Editor,apply,()V
M,android/os/Handler,getLooper,()Landroid/os/Looper;
M,android/os/Handler,postAtFrontOfQueue,(Ljava/lang/Runnable;)Z
M,android/os/Handler,<init>,()V
F,android/os/Message,what,I
F,android/app/Activity,mStopped,Z
A,receiver,android:exported
M,android/os/Parcel,createTypedArray,(Ljava/lang/Object;Landroid/os/Parcelable$Creator;)[
M,android/os/Parcel,writeTypedArray,([Landroid/os/Parcelable;I)V
M,android/os/Parcel,readBundle,()Landroid/os/Bundle;
M,android/os/Parcel,writeBundle,(Landroid/os/Bundle;)V
M,android/util/SparseArray,get,(I)Ljava/lang/Object;
A,permission,android:protectionLevel
M,android/util/SparseArray,put,(ILjava/lang/Object;)V
M,android/util/SparseArray,<init>,()V
M,android/util/SparseArray,size,()I
M,android/util/SparseArray,keyAt,(I)I
M,android/util/SparseArray,valueAt,(I)Ljava/lang/Object;
A,intent-filter,category,
A,provider,android:permission
A,provider,android:writePermission
A,provider,android:exported
M,android/content/ComponentName,getPackageName,()Ljava/lang/String;
M,android/content/ComponentName,<init>,(Ljava/lang/String;Ljava/lang/String;)V
M,android/content/Intent,<init>,()V
A,service,android:permission
M,android/content/Intent,setComponent,(Landroid/content/ComponentName;)Landroid/content/Intent;
M,android/app/Activity,getComponentName,()Landroid/content/ComponentName;
M,android/content/Context,getPackageManager,()Landroid/content/pm/PackageManager;
M,android/content/pm/PackageManager,getActivityInfo,(Landroid/content/ComponentName;I)Landroid/content/pm/ActivityInfo;
M,android/app/Activity,getParentActivityIntent,()Landroid/content/Intent;
F,android/content/pm/ActivityInfo,parentActivityName,Ljava/lang/String;
M,android/app/Activity,navigateUpTo,(Landroid/content/Intent;)Z
M,android/app/Activity,shouldUpRecreateTask,(Landroid/content/Intent;)Z
A,activity,android:permission
A,uses-permission,android:name=android.permission.ACCESS_FINE_LOCATION
M,android/util/AndroidRuntimeException,<init>,(Ljava/lang/String;)V
M,android/app/Activity,<init>,()V
M,android/content/Intent,getComponent,()Landroid/content/ComponentName;
M,android/content/Intent,resolveActivity,(Landroid/content/pm/PackageManager;)Landroid/content/ComponentName;
M,android/content/Intent,<init>,(Landroid/content/Intent;)V
M,android/content/Intent,addFlags,(I)Landroid/content/Intent;
M,android/content/Context,startActivity,(Landroid/content/Intent;)V
A,uses-permission,android:name=android.permission.ACCESS_COARSE_LOCATION
M,android/util/TypedValue,<init>,()V
F,android/util/TypedValue,resourceId,I
M,android/content/Context,getDrawable,(I)Landroid/graphics/drawable/Drawable;
M,android/content/Context,getColorStateList,(I)Landroid/content/res/ColorStateList;
M,android/content/Context,startActivities,([Landroid/content/Intent;)V
M,android/content/Context,startActivities,([Landroid/content/Intent;Landroid/os/Bundle;)V
M,android/content/Intent,makeMainActivity,(Landroid/content/ComponentName;)Landroid/content/Intent;
M,android/content/Context,checkPermission,(Ljava/lang/String;II)I
M,android/content/pm/PackageManager,getPackagesForUid,(Ljava/lang/String;I)[
A,activity,android:exported
M,android/os/Process,myPid,()I
M,android/os/Process,myUid,()I
M,android/content/Context,getPackageName,()Ljava/lang/String;
F,android/util/DisplayMetrics,heightPixels,I
F,android/util/DisplayMetrics,density,F
F,android/util/DisplayMetrics,widthPixels,I
F,android/content/res/Configuration,screenHeightDp,I
F,android/content/res/Configuration,screenWidthDp,I
F,android/content/res/Configuration,smallestScreenWidthDp,I
A,uses-permission,android:name=edu.ksu.cs.perm
F,java/lang/Integer,TYPE,Ljava/lang/Class;
A,data,android:scheme
M,android/os/AsyncTask,execute,([Ljava/lang/Object;)Landroid/os/AsyncTask;
F,android/os/AsyncTask,THREAD_POOL_EXECUTOR,Ljava/util/concurrent/Executor;
M,android/os/AsyncTask,executeOnExecutor,(Ljava/util/concurrent/Executor;[Ljava/lang/Object;)Landroid/os/AsyncTask;
A,uses-permission,android:name=android.permission.INTERNET
A,data,android:path
M,android/os/Parcel,readParcelable,(Ljava/lang/ClassLoader;)Landroid/os/Parcelable;
A,intent-filter,android:priority
M,android/os/Parcel,writeParcelable,(Landroid/os/Parcelable;I)V
M,android/app/IntentService,onHandleIntent,(Landroid/content/Intent;)V
M,android/app/Activity,onCreate,(Landroid/os/Bundle;)V
M,android/app/Activity,onResume,()V
M,android/view/View,getMinimumHeight,()I
M,android/view/View,isAttachedToWindow,()Z
M,android/view/View,getBackgroundTintList,()Landroid/content/res/ColorStateList;
M,android/view/View,getBackgroundTintMode,()Landroid/graphics/PorterDuff$Mode;
M,android/view/View,setBackgroundTintList,(Landroid/content/res/ColorStateList;)V
M,android/view/View,setBackgroundTintMode,(Landroid/graphics/PorterDuff$Mode;)V
A,permission,android:protectionLevel=0x2
M,android/content/res/Resources,getSystem,()Landroid/content/res/Resources;
M,android/animation/TimeInterpolator,getInterpolation,(F)F
M,android/os/SystemClock,uptimeMillis,()J
M,android/database/ContentObserver,<init>,(Landroid/os/Handler;)V
M,android/database/DataSetObserver,<init>,()V
M,android/database/Cursor,getCount,()I
M,android/content/ContentProvider,delete,(Landroid/net/Uri;Ljava/lang/String;[Ljava/lang/String;)I
M,android/content/ContentProvider,getType,(Landroid/net/Uri;)Ljava/lang/String;
M,android/content/ContentProvider,insert,(Landroid/net/Uri;Landroid/content/ContentValues;)Landroid/net/Uri;
M,android/content/ContentProvider,onCreate,()Z
M,android/content/ContentProvider,query,(Landroid/net/Uri;[Ljava/lang/String;Ljava/lang/String;[Ljava/lang/String;Ljava/lang/String;)Landroid/database/Cursor;
M,android/content/ContentProvider,update,(Landroid/net/Uri;Landroid/content/ContentValues;Ljava/lang/String;[Ljava/lang/String;)I
M,android/view/View,getSuggestedMinimumWidth,()I
M,android/view/View,getSuggestedMinimumHeight,()I
M,android/content/Context,obtainStyledAttributes,(Landroid/util/AttributeSet;[I)Landroid/content/res/TypedArray;
M,android/os/Message,obtain,(Landroid/os/Message;)Landroid/os/Message;
M,android/os/Message,sendToTarget,()V
M,android/os/Handler,obtainMessage,(ILjava/lang/Object;)Landroid/os/Message;
M,android/database/Cursor,getColumnIndexOrThrow,(Ljava/lang/String;)I
M,android/database/Cursor,getString,(I)Ljava/lang/String;
M,android/database/Cursor,getPosition,()I
A,uses-permission,android:name=santos.benign.permission
M,android/database/Cursor,getInt,(I)I
M,android/content/DialogInterface,dismiss,()V
M,android/content/DialogInterface$OnMultiChoiceClickListener,onClick,(Landroid/content/DialogInterface;IZ)V
F,android/os/Message,obj,Ljava/lang/Object;
M,android/content/res/TypedArray,getDimensionPixelOffset,(II)I
M,android/content/Context,obtainStyledAttributes,(Landroid/util/AttributeSet;[III)Landroid/content/res/TypedArray;
M,android/content/res/TypedArray,getResourceId,(II)I
M,android/view/ViewManager,removeView,(Landroid/view/View;)V
M,android/text/TextUtils,isEmpty,(Ljava/lang/CharSequence;)Z
M,android/widget/ImageView,setImageDrawable,(Landroid/graphics/drawable/Drawable;)V
M,android/view/ViewGroup,setClipToPadding,(Z)V
M,android/content/res/Resources$Theme,resolveAttribute,(ILandroid/util/TypedValue;Z)Z
F,android/util/TypedValue,data,I
M,android/app/Dialog,setCancelable,(Z)V
M,android/app/Dialog,setCanceledOnTouchOutside,(Z)V
M,android/app/Dialog,setOnCancelListener,(Landroid/content/DialogInterface$OnCancelListener;)V
M,android/app/Dialog,setOnDismissListener,(Landroid/content/DialogInterface$OnDismissListener;)V
M,android/app/Dialog,setOnKeyListener,(Landroid/content/DialogInterface$OnKeyListener;)V
M,android/app/Activity,getWindow,()Landroid/view/Window;
M,android/app/Dialog,getContext,()Landroid/content/Context;
M,android/app/Dialog,getWindow,()Landroid/view/Window;
M,android/content/res/Resources$NotFoundException,<init>,(Ljava/lang/String;)V
M,android/content/BroadcastReceiver,<init>,()V
M,android/content/Context,unregisterReceiver,(Landroid/content/BroadcastReceiver;)V
M,android/content/IntentFilter,<init>,()V
M,android/content/IntentFilter,addAction,(Ljava/lang/String;)V
M,android/content/Context,registerReceiver,(Landroid/content/BroadcastReceiver;Landroid/content/IntentFilter;)Landroid/content/Intent;
M,android/content/res/Resources,newTheme,()Landroid/content/res/Resources$Theme;
M,android/content/res/Resources$Theme,setTo,(Landroid/content/res/Resources$Theme;)V
M,android/content/res/Resources$Theme,applyStyle,(IZ)V
M,android/content/Context,obtainStyledAttributes,([I)Landroid/content/res/TypedArray;
M,android/content/Context,isRestricted,()Z
M,android/content/ContextWrapper,getBaseContext,()Landroid/content/Context;
M,android/util/AttributeSet,getAttributeValue,(Ljava/lang/String;Ljava/lang/String;)Ljava/lang/String;
M,android/util/LongSparseArray,clear,()V
M,android/content/Context,getApplicationContext,()Landroid/content/Context;
M,android/location/Location,getTime,()J
M,android/location/LocationManager,isProviderEnabled,(Ljava/lang/String;)Z
M,android/location/LocationManager,getLastKnownLocation,(Ljava/lang/String;)Landroid/location/Location;
M,android/location/Location,getLatitude,()D
M,android/location/Location,getLongitude,()D
M,android/util/Xml,asAttributeSet,(Lorg/xmlpull/v1/XmlPullParser;)Landroid/util/AttributeSet;
M,android/content/res/TypedArray,hasValue,(I)Z
M,android/util/AttributeSet,getAttributeCount,()I
M,android/util/AttributeSet,getAttributeNameResource,(I)I
A,uses-permission,android:name=android.permission.PROCESS_OUTGOING_CALLS
M,android/util/AttributeSet,getAttributeBooleanValue,(IZ)Z
M,android/util/StateSet,trimStateSet,(I[II)[
M,android/content/res/ColorStateList,<init>,([[I[I)V
M,android/content/res/Resources$Theme,obtainStyledAttributes,(Landroid/util/AttributeSet;[III)Landroid/content/res/TypedArray;
M,android/util/SparseArray,append,(ILjava/lang/Object;)V
M,android/content/res/Configuration,equals,(Landroid/content/res/Configuration;)Z
M,android/util/SparseArray,remove,(I)V
F,android/util/TypedValue,type,I
F,android/content/res/Configuration,locale,Ljava/util/Locale;
M,android/content/Context,getApplicationInfo,()Landroid/content/pm/ApplicationInfo;
F,android/content/pm/ApplicationInfo,targetSdkVersion,I
M,android/content/res/TypedArray,getLayoutDimension,(II)I
M,android/content/ContextWrapper,<init>,(Landroid/content/Context;)V
M,android/content/res/Resources,getAssets,()Landroid/content/res/AssetManager;
F,java/lang/Boolean,TYPE,Ljava/lang/Class;
M,android/content/res/TypedArray,getText,(I)Ljava/lang/CharSequence;
M,android/content/res/TypedArray,getDrawable,(I)Landroid/graphics/drawable/Drawable;
M,android/content/res/TypedArray,getDimensionPixelSize,(II)I
M,android/content/DialogInterface$OnClickListener,onClick,(Landroid/content/DialogInterface;I)V
M,android/app/Service,onBind,(Landroid/content/Intent;)Landroid/os/IBinder;
M,android/app/Service,onDestroy,()V
M,android/location/LocationListener,onLocationChanged,(Landroid/location/Location;)V
M,android/location/LocationListener,onProviderDisabled,(Ljava/lang/String;)V
M,android/location/LocationListener,onProviderEnabled,(Ljava/lang/String;)V
M,android/location/LocationListener,onStatusChanged,(Ljava/lang/String;ILandroid/os/Bundle;)V
M,android/app/Activity,onRequestPermissionsResult,(I[Ljava/lang/String;[I)V
M,android/content/pm/ResolveInfo,toString,()Ljava/lang/String;
M,android/content/ComponentName,unflattenFromString,(Ljava/lang/String;)Landroid/content/ComponentName;
M,android/content/ComponentName,equals,(Ljava/lang/Object;)Z
M,android/content/ComponentName,hashCode,()I
M,android/os/AsyncTask,<init>,()V
M,android/content/Context,openFileOutput,(Ljava/lang/String;I)Ljava/io/FileOutputStream;
M,android/util/Xml,newSerializer,()Lorg/xmlpull/v1/XmlSerializer;
M,android/content/ComponentName,flattenToString,()Ljava/lang/String;
A,uses-permission,android:name=android.permission.CALL_PHONE
M,android/database/DataSetObservable,notifyChanged,()V
M,android/content/pm/PackageManager,queryIntentActivities,(Landroid/content/Intent;I)Ljava/util/List;
M,android/content/Context,openFileInput,(Ljava/lang/String;)Ljava/io/FileInputStream;
M,android/util/Xml,newPullParser,()Lorg/xmlpull/v1/XmlPullParser;
F,android/content/pm/ResolveInfo,activityInfo,Landroid/content/pm/ActivityInfo;
F,android/content/pm/PackageItemInfo,packageName,Ljava/lang/String;
F,android/content/pm/PackageItemInfo,name,Ljava/lang/String;
M,android/view/View,setId,(I)V
M,android/content/Context,getString,(I)Ljava/lang/String;
M,android/content/pm/ResolveInfo,loadIcon,(Landroid/content/pm/PackageManager;)Landroid/graphics/drawable/Drawable;
M,android/content/pm/ResolveInfo,loadLabel,(Landroid/content/pm/PackageManager;)Ljava/lang/CharSequence;
M,android/database/Observable,unregisterObserver,(Ljava/lang/Object;)V
M,android/database/Observable,registerObserver,(Ljava/lang/Object;)V
M,android/content/res/TypedArray,getColorStateList,(I)Landroid/content/res/ColorStateList;
F,android/util/TypedValue,assetCookie,I
F,android/util/TypedValue,changingConfigurations,I
M,android/content/res/ColorStateList,getColorForState,([II)I
F,android/util/TypedValue,string,Ljava/lang/CharSequence;
M,android/widget/LinearLayout,setOrientation,(I)V
M,android/util/TypedValue,getDimension,(Landroid/util/DisplayMetrics;)F
M,android/util/TypedValue,getFraction,(FF)F
M,android/text/Layout,getLineCount,()I
M,android/text/Layout,getEllipsisCount,(I)I
A,permission,android:protectionLevel=0x1
M,android/content/res/TypedArray,getBoolean,(IZ)Z
M,android/os/Handler,removeCallbacks,(Ljava/lang/Runnable;)V
M,android/os/Handler,postDelayed,(Ljava/lang/Runnable;J)Z
M,android/content/res/TypedArray,getColor,(II)I
M,android/content/res/TypedArray,getFloat,(IF)F
M,android/content/res/TypedArray,getInt,(II)I
M,android/content/res/Resources,<init>,(Landroid/content/res/AssetManager;Landroid/util/DisplayMetrics;Landroid/content/res/Configuration;)V
M,android/content/res/ComplexColor,isStateful,()Z
M,android/content/res/ComplexColor,getDefaultColor,()I
M,android/util/TypedValue,getFloat,()F
M,android/content/Context,obtainStyledAttributes,(I[I)Landroid/content/res/TypedArray;
M,android/content/res/TypedArray,getInteger,(II)I
M,android/content/res/TypedArray,getTextArray,(Ljava/lang/CharSequence;I)[
M,android/content/Context,getText,(I)Ljava/lang/CharSequence;
F,android/text/TextUtils$TruncateAt,END,Landroid/text/TextUtils$TruncateAt;
M,android/app/IntentService,<init>,(Ljava/lang/String;)V
M,java/io/InputStream,read,([B)I
M,java/lang/String,<init>,([BII)V
M,javax/net/ssl/SSLContext,getInstance,(Ljava/lang/String;)Ljavax/net/ssl/SSLContext;
M,javax/net/ssl/SSLContext,init,([Ljavax/net/ssl/KeyManager;[Ljavax/net/ssl/TrustManager;Ljava/security/SecureRandom;)V
M,java/net/URL,<init>,(Ljava/lang/String;)V
M,java/net/URL,openConnection,()Ljava/net/URLConnection;
M,javax/net/ssl/SSLContext,getSocketFactory,()Ljavax/net/ssl/SSLSocketFactory;
M,javax/net/ssl/HttpsURLConnection,setSSLSocketFactory,(Ljavax/net/ssl/SSLSocketFactory;)V
M,java/net/URLConnection,getInputStream,()Ljava/io/InputStream;
M,android/content/Intent,<init>,(Landroid/content/Context;Ljava/lang/Class;)V
M,android/content/Intent,putExtra,(Ljava/lang/String;Ljava/lang/String;)Landroid/content/Intent;
M,java/net/HttpURLConnection,disconnect,()V
A,uses-permission,android:name=edu.ksu.cs.SecurePermission
M,android/app/Activity,finish,()V
M,android/app/Activity,getLayoutInflater,()Landroid/view/LayoutInflater;
F,android/app/Activity,mHandler,Landroid/os/Handler;
M,android/os/Handler,post,(Ljava/lang/Runnable;)Z
M,android/os/BaseBundle,getInt,(Ljava/lang/String;I)I
M,android/content/res/TypedArray,getString,(I)Ljava/lang/String;
M,android/os/Bundle,getSparseParcelableArray,(Ljava/lang/String;)Landroid/util/SparseArray;
M,android/os/BaseBundle,getBoolean,(Ljava/lang/String;Z)Z
M,android/util/AttributeSet,getPositionDescription,()Ljava/lang/String;
M,android/os/BaseBundle,putInt,(Ljava/lang/String;I)V
M,android/os/Bundle,<init>,()V
M,android/os/BaseBundle,isEmpty,()Z
M,android/content/res/TypedArray,recycle,()V
M,android/os/Bundle,putSparseParcelableArray,(Ljava/lang/String;Landroid/util/SparseArray;)V
M,android/os/BaseBundle,putBoolean,(Ljava/lang/String;Z)V
M,android/util/SparseArray,clear,()V
M,android/content/ComponentName,<init>,(Landroid/content/Context;Ljava/lang/String;)V
F,android/content/pm/PackageItemInfo,metaData,Landroid/os/Bundle;
M,android/os/BaseBundle,getString,(Ljava/lang/String;)Ljava/lang/String;
M,android/app/Activity,getIntent,()Landroid/content/Intent;
M,android/content/Intent,getAction,()Ljava/lang/String;
M,android/content/Intent,<init>,(Ljava/lang/String;)V
M,android/content/Intent,addCategory,(Ljava/lang/String;)Landroid/content/Intent;
M,android/content/res/ColorStateList,valueOf,(I)Landroid/content/res/ColorStateList;
M,android/database/Cursor,moveToPosition,(I)Z
M,android/database/Cursor,getLong,(I)J
M,android/database/Cursor,registerContentObserver,(Landroid/database/ContentObserver;)V
M,android/database/Cursor,registerDataSetObserver,(Landroid/database/DataSetObserver;)V
M,android/database/Cursor,isClosed,()Z
M,android/database/Cursor,requery,()Z
M,android/database/Cursor,unregisterContentObserver,(Landroid/database/ContentObserver;)V
M,android/database/Cursor,unregisterDataSetObserver,(Landroid/database/DataSetObserver;)V
M,android/view/View,scrollBy,(II)V
