A,intent-filter,action,
A,application,android:allowBackup
M,android/content/pm/PackageManager,checkPermission,(Ljava/lang/String;Ljava/lang/String;)I
M,android/app/Activity,requestPermissions,([Ljava/lang/String;I)V
A,application,android:debuggable
M,android/content/Intent,setData,(Landroid/net/Uri;)Landroid/content/Intent;
M,android/content/Intent,putExtra,(Ljava/lang/String;Landroid/os/Bundle;)Landroid/content/Intent;
A,service,android:exported
M,android/content/ContentResolver,openInputStream,(Landroid/net/Uri;)Ljava/io/InputStream;
M,android/os/Binder,getCallingPid,()I
M,android/os/Binder,getCallingUid,()I
M,android/webkit/WebViewClient,<init>,()V
M,android/webkit/WebView,loadUrl,(Ljava/lang/String;)V
M,java/net/URL,openConnection,()Ljava/net/URLConnection;
M,java/net/URLConnection,getInputStream,()Ljava/io/InputStream;
M,java/net/HttpURLConnection,disconnect,()V
M,javax/crypto/Cipher,getInstance,(Ljava/lang/String;)Ljavax/crypto/Cipher;
M,javax/crypto/spec/SecretKeySpec,<init>,([BLjava/lang/String;)V
M,javax/crypto/Cipher,init,(ILjava/security/Key;)V
E,uses-permission
M,javax/crypto/Cipher,doFinal,(B[B)[
M,javax/crypto/Cipher,getIV,(B)[
M,javax/crypto/spec/IvParameterSpec,<init>,([B)V
M,javax/crypto/Cipher,init,(ILjava/security/Key;Ljava/security/spec/AlgorithmParameterSpec;)V
M,android/content/ContentProvider,delete,(Landroid/net/Uri;Ljava/lang/String;[Ljava/lang/String;)I
M,android/content/ContentProvider,insert,(Landroid/net/Uri;Landroid/content/ContentValues;)Landroid/net/Uri;
M,android/content/ContentProvider,update,(Landroid/net/Uri;Landroid/content/ContentValues;Ljava/lang/String;[Ljava/lang/String;)I
M,android/content/IntentFilter,<init>,(Ljava/lang/String;)V
M,android/content/Context,getFilesDir,()Ljava/io/File;
M,android/webkit/WebView,setWebViewClient,(Landroid/webkit/WebViewClient;)V
M,android/webkit/WebSettings,setAllowFileAccess,(Z)V
M,android/webkit/WebSettings,setJavaScriptEnabled,(Z)V
M,android/webkit/WebSettings,setAllowFileAccessFromFileURLs,(Z)V
M,android/content/Intent,putExtra,(Ljava/lang/String;Z)Landroid/content/Intent;
M,android/content/ContentResolver,insert,(Landroid/net/Uri;Landroid/content/ContentValues;)Landroid/net/Uri;
M,android/webkit/WebResourceRequest,getUrl,()Landroid/net/Uri;
M,android/content/UriMatcher,match,(Landroid/net/Uri;)I
M,android/content/Intent,setFlags,(I)Landroid/content/Intent;
M,android/app/Activity,setResult,(ILandroid/content/Intent;)V
M,android/content/Context,getExternalFilesDir,(Ljava/lang/String;)Ljava/io/File;
M,android/content/Intent,setAction,(Ljava/lang/String;)Landroid/content/Intent;
M,android/app/Activity,onActivityResult,(IILandroid/content/Intent;)V
M,android/webkit/WebViewClient,shouldInterceptRequest,(Landroid/webkit/WebView;Ljava/lang/String;)Landroid/webkit/WebResourceResponse;
M,android/webkit/WebSettings,setAllowUniversalAccessFromFileURLs,(Z)V
M,android/content/SharedPreferences,getString,(Ljava/lang/String;Ljava/lang/String;)Ljava/lang/String;
M,android/content/SharedPreferences,edit,()Landroid/content/SharedPreferences$Editor;
M,android/content/SharedPreferences$Editor,putString,(Ljava/lang/String;Ljava/lang/String;)Landroid/content/SharedPreferences$Editor;
M,android/content/SharedPreferences$Editor,apply,()V
M,android/webkit/WebViewClient,onReceivedSslError,(Landroid/webkit/WebView;Landroid/webkit/SslErrorHandler;Landroid/net/http/SslError;)V
M,android/database/sqlite/SQLiteDatabase,insert,(Ljava/lang/String;Ljava/lang/String;Landroid/content/ContentValues;)J
M,android/database/sqlite/SQLiteDatabase,execSQL,(Ljava/lang/String;)V
M,android/content/Intent,putExtra,(Ljava/lang/String;[Ljava/lang/String;)Landroid/content/Intent;
M,android/app/Activity,setResult,(I)V
M,android/content/Intent,getIntExtra,(Ljava/lang/String;I)I
M,android/database/sqlite/SQLiteDatabase,rawQuery,(Ljava/lang/String;[Ljava/lang/String;)Landroid/database/Cursor;
M,android/app/PendingIntent,getService,(Landroid/content/Context;ILandroid/content/Intent;I)Landroid/app/PendingIntent;
M,javax/net/ssl/HostnameVerifier,verify,(Ljava/lang/String;Ljavax/net/ssl/SSLSession;)Z
M,javax/net/ssl/X509TrustManager,checkClientTrusted,([Ljava/security/cert/X509Certificate;Ljava/lang/String;)V
M,javax/net/ssl/X509TrustManager,checkServerTrusted,([Ljava/security/cert/X509Certificate;Ljava/lang/String;)V
M,javax/net/ssl/SSLContext,init,([Ljavax/net/ssl/KeyManager;[Ljavax/net/ssl/TrustManager;Ljava/security/SecureRandom;)V
M,javax/net/ssl/SSLContext,getSocketFactory,()Ljavax/net/ssl/SSLSocketFactory;
M,javax/net/ssl/HttpsURLConnection,setSSLSocketFactory,(Ljavax/net/ssl/SSLSocketFactory;)V
M,javax/net/ssl/HttpsURLConnection,setHostnameVerifier,(Ljavax/net/ssl/HostnameVerifier;)V
M,android/content/Context,enforceCallingOrSelfPermission,(Ljava/lang/String;Ljava/lang/String;)V
M,android/content/Context,sendStickyBroadcast,(Landroid/content/Intent;)V
A,intent-filter,android:priority
A,application,android:taskAffinity
A,activity,android:taskAffinity
A,uses-permission,android:name=android.permission.SEND_SMS
A,receiver,android:exported
A,permission,android:protectionLevel=0x2
A,permission,android:protectionLevel
A,activity,android:exported
A,path-permission,android:readPermission
A,provider,android:exported
M,android/content/Context,checkPermission,(Ljava/lang/String;II)I
A,provider,android:permission
A,uses-permission,android:name=android.permission.PROCESS_OUTGOING_CALLS
M,android/content/BroadcastReceiver,onReceive,(Landroid/content/Context;Landroid/content/Intent;)V
M,android/app/Activity,onRequestPermissionsResult,(I[Ljava/lang/String;[I)V
A,uses-permission,android:name=android.permission.ACCESS_FINE_LOCATION
A,uses-permission,android:name=android.permission.ACCESS_COARSE_LOCATION
M,android/content/Context,unregisterReceiver,(Landroid/content/BroadcastReceiver;)V
M,android/content/IntentFilter,<init>,()V
M,android/content/IntentFilter,addAction,(Ljava/lang/String;)V
M,android/location/LocationManager,getLastKnownLocation,(Ljava/lang/String;)Landroid/location/Location;
M,android/location/Location,getLatitude,()D
A,uses-permission,android:name=android.permission.INTERNET
M,android/content/Context,openFileOutput,(Ljava/lang/String;I)Ljava/io/FileOutputStream;
M,android/content/Context,openFileInput,(Ljava/lang/String;)Ljava/io/FileInputStream;
M,android/app/IntentService,onHandleIntent,(Landroid/content/Intent;)V
M,android/content/Intent,putExtra,(Ljava/lang/String;Ljava/lang/String;)Landroid/content/Intent;
M,android/content/Context,sendBroadcast,(Landroid/content/Intent;)V
M,android/content/Intent,getAction,()Ljava/lang/String;
M,android/content/Intent,getStringExtra,(Ljava/lang/String;)Ljava/lang/String;
M,android/telephony/SmsManager,getDefault,()Landroid/telephony/SmsManager;
M,android/telephony/SmsManager,sendTextMessage,(Ljava/lang/String;Ljava/lang/String;Ljava/lang/String;Landroid/app/PendingIntent;Landroid/app/PendingIntent;)V
M,android/app/Activity,getIntent,()Landroid/content/Intent;
M,android/app/Service,onBind,(Landroid/content/Intent;)Landroid/os/IBinder;
