2018-09-15 17:09:36.641 [main] INFO  com.horndroid.Main - Starting fsHornDroid...
2018-09-15 17:09:36.645 [main] INFO  com.horndroid.Main - Flow Sensitive Analysis on 64 bitvectors size
2018-09-15 17:09:36.646 [main] DEBUG com.horndroid.executors.HorndroidExecutor - Parsing sources and sinks...
2018-09-15 17:09:36.928 [main] DEBUG com.horndroid.executors.HorndroidExecutor - done in 281 milliseconds
2018-09-15 17:09:36.928 [main] DEBUG com.horndroid.executors.HorndroidExecutor - Collecting apk files to process...
2018-09-15 17:09:36.928 [main] DEBUG com.horndroid.executors.HorndroidExecutor - done in 0 milliseconds
2018-09-15 17:09:36.958 [main] INFO  com.horndroid.executors.HorndroidExecutor - Analysing ImplicitIntent-ServiceHijack-Lean-benign.apk
2018-09-15 17:09:36.979 [main] DEBUG com.horndroid.executors.HorndroidExecutor - Parsing entry points...
2018-09-15 17:09:36.982 [main] DEBUG com.horndroid.executors.HorndroidExecutor - done in 3 milliseconds
2018-09-15 17:09:36.982 [main] DEBUG com.horndroid.executors.HorndroidExecutor - Parsing callbacks and disabled activities...
2018-09-15 17:09:36.982 [main] INFO  com.horndroid.util.SourceSinkParser - Running apktool to obtain manifest xml and layout files
2018-09-15 17:09:39.032 [main] INFO  com.horndroid.util.SourceSinkParser - Exit Code:0
2018-09-15 17:09:39.045 [main] INFO  com.horndroid.util.SourceSinkParser - STDOUT:I: Using Apktool 2.3.0 on ImplicitIntent-ServiceHijack-Lean-benign.apk
2018-09-15 17:09:39.045 [main] INFO  com.horndroid.util.SourceSinkParser - STDOUT:I: Loading resource table...
2018-09-15 17:09:39.045 [main] INFO  com.horndroid.util.SourceSinkParser - STDOUT:I: Decoding AndroidManifest.xml with resources...
2018-09-15 17:09:39.045 [main] INFO  com.horndroid.util.SourceSinkParser - STDOUT:I: Loading resource table from file: /home/joydeep/.local/share/apktool/framework/1.apk
2018-09-15 17:09:39.046 [main] INFO  com.horndroid.util.SourceSinkParser - STDOUT:I: Regular manifest package...
2018-09-15 17:09:39.046 [main] INFO  com.horndroid.util.SourceSinkParser - STDOUT:I: Decoding file-resources...
2018-09-15 17:09:39.046 [main] INFO  com.horndroid.util.SourceSinkParser - STDOUT:I: Decoding values */* XMLs...
2018-09-15 17:09:39.046 [main] INFO  com.horndroid.util.SourceSinkParser - STDOUT:I: Copying raw classes.dex file...
2018-09-15 17:09:39.046 [main] INFO  com.horndroid.util.SourceSinkParser - STDOUT:I: Copying assets and libs...
2018-09-15 17:09:39.046 [main] INFO  com.horndroid.util.SourceSinkParser - STDOUT:I: Copying unknown files...
2018-09-15 17:09:39.046 [main] INFO  com.horndroid.util.SourceSinkParser - STDOUT:I: Copying original files...
2018-09-15 17:09:39.285 [main] DEBUG com.horndroid.executors.HorndroidExecutor - ...done in 2302 milliseconds
2018-09-15 17:09:39.285 [main] DEBUG com.horndroid.executors.HorndroidExecutor - Sorting classes...
2018-09-15 17:09:39.301 [main] DEBUG com.horndroid.executors.HorndroidExecutor - done in 15 milliseconds
2018-09-15 17:09:39.301 [main] DEBUG com.horndroid.executors.HorndroidExecutor - Collecting data for Horn Clause generation...
2018-09-15 17:09:39.378 [main] DEBUG com.horndroid.executors.HorndroidExecutor - done in 76 milliseconds
2018-09-15 17:09:39.378 [main] DEBUG com.horndroid.executors.HorndroidExecutor - Generating Horn Clauses..
2018-09-15 17:09:39.378 [main] INFO  com.horndroid.analysis.Analysis - Ready to start generating Horn Clauses:
2018-09-15 17:09:39.379 [main] INFO  com.horndroid.analysis.Analysis - Number of classes in APK : 3
2018-09-15 17:09:39.379 [main] INFO  com.horndroid.analysis.Analysis - Number of methods in APK: 8
2018-09-15 17:09:39.379 [main] INFO  com.horndroid.analysis.Analysis - Number of instructions in APK: 42
2018-09-15 17:09:39.379 [main] INFO  com.horndroid.analysis.Analysis - Number of instances in APK: 11
2018-09-15 17:09:39.384 [main] INFO  com.horndroid.analysis.Analysis - Number of sources: 10
2018-09-15 17:09:39.384 [main] INFO  com.horndroid.analysis.Analysis - Number of sinks: 4
2018-09-15 17:09:39.384 [main] INFO  com.horndroid.analysis.Analysis - Number of classes : 3
2018-09-15 17:09:39.384 [main] INFO  com.horndroid.analysis.Analysis - Number of methods: 8
2018-09-15 17:09:39.384 [main] INFO  com.horndroid.analysis.Analysis - Number of instructions: 42
2018-09-15 17:09:39.384 [main] INFO  com.horndroid.analysis.Analysis - Number of instances : 11
2018-09-15 17:09:39.427 [main] DEBUG com.horndroid.executors.HorndroidExecutor - ...done in 49 milliseconds
2018-09-15 17:09:39.427 [main] DEBUG com.horndroid.executors.HorndroidExecutor - Waiting for treads to terminate...
2018-09-15 17:09:39.428 [main] DEBUG com.horndroid.executors.HorndroidExecutor - ...done in 0 milliseconds
2018-09-15 17:09:39.428 [main] DEBUG com.horndroid.executors.HorndroidExecutor - Executing all queries...
2018-09-15 17:09:39.429 [main] INFO  com.horndroid.z3.FSEngine - Number of the generated queries: 0
2018-09-15 17:09:39.429 [main] DEBUG com.horndroid.executors.HorndroidExecutor - ...done in 0 milliseconds
