1!A,intent-filter,action,
3!A,uses-permission,android:name=android.permission.INTERNET
4!A,uses-permission,android:name=android.permission.PROCESS_OUTGOING_CALLS
5!A,uses-permission,android:name=android.permission.CALL_PHONE
6!A,uses-permission,android:name=android.permission.ACCESS_FINE_LOCATION
7!A,uses-permission,android:name=android.permission.ACCESS_COARSE_LOCATION
10!E,uses-permission
11!A,application,android:allowBackup
12!A,application,android:debuggable
13!A,service,android:exported
14!A,receiver,android:exported
16!A,permission,android:protectionLevel=0x2
17!A,intent-filter,android:priority
18!A,activity,android:exported
19!A,provider,android:exported
20!A,permission,android:protectionLevel=0x1
22!A,permission,android:protectionLevel
23!A,provider,android:writePermission
26!A,provider,android:permission
27!A,path-permission,android:readPermission
28!A,activity,android:taskAffinity
29!A,application,android:taskAffinity
268!M,android/content/Context,checkPermission,(Ljava/lang/String;II)I
550!M,android/content/Context,unregisterReceiver,(Landroid/content/BroadcastReceiver;)V
551!M,android/content/IntentFilter,<init>,()V
552!M,android/content/IntentFilter,addAction,(Ljava/lang/String;)V
578!M,android/location/LocationManager,getLastKnownLocation,(Ljava/lang/String;)Landroid/location/Location;
580!M,android/location/Location,getLatitude,()D
673!M,android/content/Context,openFileOutput,(Ljava/lang/String;I)Ljava/io/FileOutputStream;
689!M,android/content/Context,openFileInput,(Ljava/lang/String;)Ljava/io/FileInputStream;
872!M,android/webkit/WebView,loadUrl,(Ljava/lang/String;)V
873!M,android/webkit/WebViewClient,<init>,()V
875!M,android/content/Intent,putExtra,(Ljava/lang/String;Ljava/lang/String;)Landroid/content/Intent;
876!M,android/content/Intent,getAction,()Ljava/lang/String;
877!M,android/webkit/WebResourceRequest,getUrl,()Landroid/net/Uri;
890!M,android/app/Service,onBind,(Landroid/content/Intent;)Landroid/os/IBinder;
895!M,android/app/Activity,onRequestPermissionsResult,(I[Ljava/lang/String;[I)V
935!M,android/app/Activity,getIntent,()Landroid/content/Intent;
990!M,android/content/pm/PackageManager,checkPermission,(Ljava/lang/String;Ljava/lang/String;)I
992!M,android/app/Activity,requestPermissions,([Ljava/lang/String;I)V
1105!M,android/content/Intent,setData,(Landroid/net/Uri;)Landroid/content/Intent;
1107!M,android/content/Intent,putExtra,(Ljava/lang/String;Landroid/os/Bundle;)Landroid/content/Intent;
1227!M,android/content/ContentResolver,openInputStream,(Landroid/net/Uri;)Ljava/io/InputStream;
1277!M,android/content/Intent,getStringExtra,(Ljava/lang/String;)Ljava/lang/String;
1279!M,android/webkit/WebSettings,setJavaScriptEnabled,(Z)V
1280!M,android/webkit/WebView,setWebViewClient,(Landroid/webkit/WebViewClient;)V
1282!M,android/os/Binder,getCallingPid,()I
1283!M,android/os/Binder,getCallingUid,()I
1287!M,javax/crypto/Cipher,getInstance,(Ljava/lang/String;)Ljavax/crypto/Cipher;
1288!M,javax/crypto/spec/SecretKeySpec,<init>,([BLjava/lang/String;)V
1289!M,javax/crypto/Cipher,init,(ILjava/security/Key;)V
1291!M,javax/crypto/Cipher,doFinal,(B[B)[
1293!M,javax/crypto/Cipher,getIV,(B)[
1297!M,javax/crypto/spec/IvParameterSpec,<init>,([B)V
1298!M,javax/crypto/Cipher,init,(ILjava/security/Key;Ljava/security/spec/AlgorithmParameterSpec;)V
1300!M,android/app/IntentService,onHandleIntent,(Landroid/content/Intent;)V
1305!M,android/content/Context,getExternalFilesDir,(Ljava/lang/String;)Ljava/io/File;
1311!M,android/content/Intent,setAction,(Ljava/lang/String;)Landroid/content/Intent;
1312!M,android/content/Context,sendBroadcast,(Landroid/content/Intent;)V
1314!M,android/app/Activity,onActivityResult,(IILandroid/content/Intent;)V
1316!M,android/webkit/WebViewClient,shouldInterceptRequest,(Landroid/webkit/WebView;Ljava/lang/String;)Landroid/webkit/WebResourceResponse;
1318!M,android/webkit/WebSettings,setAllowUniversalAccessFromFileURLs,(Z)V
1320!M,android/content/SharedPreferences,getString,(Ljava/lang/String;Ljava/lang/String;)Ljava/lang/String;
1321!M,android/content/SharedPreferences,edit,()Landroid/content/SharedPreferences$Editor;
1322!M,android/content/SharedPreferences$Editor,putString,(Ljava/lang/String;Ljava/lang/String;)Landroid/content/SharedPreferences$Editor;
1323!M,android/content/SharedPreferences$Editor,apply,()V
1324!M,android/content/ContentProvider,delete,(Landroid/net/Uri;Ljava/lang/String;[Ljava/lang/String;)I
1326!M,android/content/ContentProvider,insert,(Landroid/net/Uri;Landroid/content/ContentValues;)Landroid/net/Uri;
1329!M,android/content/ContentProvider,update,(Landroid/net/Uri;Landroid/content/ContentValues;Ljava/lang/String;[Ljava/lang/String;)I
1330!M,android/content/ContentProvider,call,(Ljava/lang/String;Ljava/lang/String;Landroid/os/Bundle;)Landroid/os/Bundle;
1334!M,android/content/Context,getFilesDir,()Ljava/io/File;
1345!M,android/content/ContentResolver,insert,(Landroid/net/Uri;Landroid/content/ContentValues;)Landroid/net/Uri;
1351!M,java/security/SecureRandom,<init>,()V
1353!M,javax/crypto/spec/PBEKeySpec,<init>,([C[BII)V
1356!M,javax/crypto/SecretKey,getEncoded,(B)[
1357!M,javax/crypto/Cipher,getBlockSize,()I
1359!M,android/content/BroadcastReceiver,onReceive,(Landroid/content/Context;Landroid/content/Intent;)V
1362!M,android/content/IntentFilter,<init>,(Ljava/lang/String;)V
1363!M,javax/net/ssl/HostnameVerifier,verify,(Ljava/lang/String;Ljavax/net/ssl/SSLSession;)Z
1364!M,javax/net/ssl/X509TrustManager,checkClientTrusted,([Ljava/security/cert/X509Certificate;Ljava/lang/String;)V
1365!M,javax/net/ssl/X509TrustManager,checkServerTrusted,([Ljava/security/cert/X509Certificate;Ljava/lang/String;)V
1404!M,javax/net/ssl/SSLContext,init,([Ljavax/net/ssl/KeyManager;[Ljavax/net/ssl/TrustManager;Ljava/security/SecureRandom;)V
1406!M,java/net/URL,openConnection,()Ljava/net/URLConnection;
1407!M,javax/net/ssl/SSLContext,getSocketFactory,()Ljavax/net/ssl/SSLSocketFactory;
1408!M,javax/net/ssl/HttpsURLConnection,setSSLSocketFactory,(Ljavax/net/ssl/SSLSocketFactory;)V
1409!M,javax/net/ssl/HttpsURLConnection,setHostnameVerifier,(Ljavax/net/ssl/HostnameVerifier;)V
1410!M,java/net/URLConnection,getInputStream,()Ljava/io/InputStream;
1411!M,java/net/HttpURLConnection,disconnect,()V
1414!M,android/content/UriMatcher,match,(Landroid/net/Uri;)I
1419!M,android/webkit/WebSettings,setAllowFileAccess,(Z)V
1420!M,android/webkit/WebSettings,setAllowFileAccessFromFileURLs,(Z)V
1426!M,android/content/Intent,setFlags,(I)Landroid/content/Intent;
1427!M,android/app/Activity,setResult,(ILandroid/content/Intent;)V
1430!M,android/location/LocationListener,onLocationChanged,(Landroid/location/Location;)V
1433!M,android/location/LocationListener,onStatusChanged,(Ljava/lang/String;ILandroid/os/Bundle;)V
1435!M,android/database/sqlite/SQLiteDatabase,insert,(Ljava/lang/String;Ljava/lang/String;Landroid/content/ContentValues;)J
1437!M,android/database/sqlite/SQLiteDatabase,query,(Ljava/lang/String;[Ljava/lang/String;Ljava/lang/String;[Ljava/lang/String;Ljava/lang/String;Ljava/lang/String;Ljava/lang/String;)Landroid/database/Cursor;
1439!M,android/database/sqlite/SQLiteDatabase,execSQL,(Ljava/lang/String;)V
1443!M,android/content/Intent,putExtra,(Ljava/lang/String;Z)Landroid/content/Intent;
1444!M,android/content/BroadcastReceiver,getResultData,()Ljava/lang/String;
1445!M,android/content/BroadcastReceiver,setResultData,(Ljava/lang/String;)V
1446!M,android/content/Intent,putExtra,(Ljava/lang/String;[Ljava/lang/String;)Landroid/content/Intent;
1447!M,android/app/Activity,setResult,(I)V
1449!M,android/content/Intent,getIntExtra,(Ljava/lang/String;I)I
1461!M,java/net/ServerSocket,<init>,(I)V
1462!M,java/net/ServerSocket,accept,()Ljava/net/Socket;
1463!M,java/net/Socket,getOutputStream,()Ljava/io/OutputStream;
1477!M,java/net/Socket,isConnected,()Z
1478!M,java/net/Socket,getInputStream,()Ljava/io/InputStream;
1480!M,android/app/PendingIntent,getService,(Landroid/content/Context;ILandroid/content/Intent;I)Landroid/app/PendingIntent;
1717!A,uses-permission,android:name=android.permission.SEND_SMS
1719!M,android/telephony/SmsManager,getDefault,()Landroid/telephony/SmsManager;
1720!M,android/telephony/SmsManager,sendTextMessage,(Ljava/lang/String;Ljava/lang/String;Ljava/lang/String;Landroid/app/PendingIntent;Landroid/app/PendingIntent;)V
1721!M,android/content/Context,enforceCallingOrSelfPermission,(Ljava/lang/String;Ljava/lang/String;)V
1722!M,android/webkit/WebViewClient,onReceivedSslError,(Landroid/webkit/WebView;Landroid/webkit/SslErrorHandler;Landroid/net/http/SslError;)V
1724!M,android/content/Context,sendStickyBroadcast,(Landroid/content/Intent;)V
1725!M,android/database/sqlite/SQLiteDatabase,rawQuery,(Ljava/lang/String;[Ljava/lang/String;)Landroid/database/Cursor;
