2018-37-15 17:37:05.884 [main] INFO  com.horndroid.Main - Starting fsHornDroid...
2018-37-15 17:37:05.887 [main] INFO  com.horndroid.Main - Flow Sensitive Analysis on 64 bitvectors size
2018-37-15 17:37:05.889 [main] DEBUG com.horndroid.executors.HorndroidExecutor - Parsing sources and sinks...
2018-37-15 17:37:06.184 [main] DEBUG com.horndroid.executors.HorndroidExecutor - done in 295 milliseconds
2018-37-15 17:37:06.184 [main] DEBUG com.horndroid.executors.HorndroidExecutor - Collecting apk files to process...
2018-37-15 17:37:06.185 [main] DEBUG com.horndroid.executors.HorndroidExecutor - done in 0 milliseconds
2018-37-15 17:37:06.213 [main] INFO  com.horndroid.executors.HorndroidExecutor - Analysing TaskAffinity-LauncherActivity-PhishingAttack-Lean-benign.apk
2018-37-15 17:37:06.234 [main] DEBUG com.horndroid.executors.HorndroidExecutor - Parsing entry points...
2018-37-15 17:37:06.237 [main] DEBUG com.horndroid.executors.HorndroidExecutor - done in 3 milliseconds
2018-37-15 17:37:06.237 [main] DEBUG com.horndroid.executors.HorndroidExecutor - Parsing callbacks and disabled activities...
2018-37-15 17:37:06.237 [main] INFO  com.horndroid.util.SourceSinkParser - Running apktool to obtain manifest xml and layout files
2018-37-15 17:37:08.282 [main] INFO  com.horndroid.util.SourceSinkParser - Exit Code:0
2018-37-15 17:37:08.283 [main] INFO  com.horndroid.util.SourceSinkParser - STDOUT:I: Using Apktool 2.3.0 on TaskAffinity-LauncherActivity-PhishingAttack-Lean-benign.apk
2018-37-15 17:37:08.283 [main] INFO  com.horndroid.util.SourceSinkParser - STDOUT:I: Loading resource table...
2018-37-15 17:37:08.283 [main] INFO  com.horndroid.util.SourceSinkParser - STDOUT:I: Decoding AndroidManifest.xml with resources...
2018-37-15 17:37:08.283 [main] INFO  com.horndroid.util.SourceSinkParser - STDOUT:I: Loading resource table from file: /home/joydeep/.local/share/apktool/framework/1.apk
2018-37-15 17:37:08.283 [main] INFO  com.horndroid.util.SourceSinkParser - STDOUT:I: Regular manifest package...
2018-37-15 17:37:08.284 [main] INFO  com.horndroid.util.SourceSinkParser - STDOUT:I: Decoding file-resources...
2018-37-15 17:37:08.284 [main] INFO  com.horndroid.util.SourceSinkParser - STDOUT:I: Decoding values */* XMLs...
2018-37-15 17:37:08.284 [main] INFO  com.horndroid.util.SourceSinkParser - STDOUT:I: Copying raw classes.dex file...
2018-37-15 17:37:08.284 [main] INFO  com.horndroid.util.SourceSinkParser - STDOUT:I: Copying assets and libs...
2018-37-15 17:37:08.284 [main] INFO  com.horndroid.util.SourceSinkParser - STDOUT:I: Copying unknown files...
2018-37-15 17:37:08.284 [main] INFO  com.horndroid.util.SourceSinkParser - STDOUT:I: Copying original files...
2018-37-15 17:37:08.525 [main] DEBUG com.horndroid.executors.HorndroidExecutor - ...done in 2288 milliseconds
2018-37-15 17:37:08.525 [main] DEBUG com.horndroid.executors.HorndroidExecutor - Sorting classes...
2018-37-15 17:37:08.544 [main] DEBUG com.horndroid.executors.HorndroidExecutor - done in 18 milliseconds
2018-37-15 17:37:08.544 [main] DEBUG com.horndroid.executors.HorndroidExecutor - Collecting data for Horn Clause generation...
2018-37-15 17:37:08.665 [main] DEBUG com.horndroid.executors.HorndroidExecutor - done in 120 milliseconds
2018-37-15 17:37:08.665 [main] DEBUG com.horndroid.executors.HorndroidExecutor - Generating Horn Clauses..
2018-37-15 17:37:08.665 [main] INFO  com.horndroid.analysis.Analysis - Ready to start generating Horn Clauses:
2018-37-15 17:37:08.666 [main] INFO  com.horndroid.analysis.Analysis - Number of classes in APK : 3
2018-37-15 17:37:08.667 [main] INFO  com.horndroid.analysis.Analysis - Number of methods in APK: 7
2018-37-15 17:37:08.667 [main] INFO  com.horndroid.analysis.Analysis - Number of instructions in APK: 35
2018-37-15 17:37:08.667 [main] INFO  com.horndroid.analysis.Analysis - Number of instances in APK: 5
2018-37-15 17:37:08.672 [main] INFO  com.horndroid.analysis.Analysis - Number of sources: 12
2018-37-15 17:37:08.672 [main] INFO  com.horndroid.analysis.Analysis - Number of sinks: 8
2018-37-15 17:37:08.672 [main] INFO  com.horndroid.analysis.Analysis - Number of classes : 3
2018-37-15 17:37:08.672 [main] INFO  com.horndroid.analysis.Analysis - Number of methods: 7
2018-37-15 17:37:08.672 [main] INFO  com.horndroid.analysis.Analysis - Number of instructions: 35
2018-37-15 17:37:08.672 [main] INFO  com.horndroid.analysis.Analysis - Number of instances : 5
2018-37-15 17:37:08.719 [main] DEBUG com.horndroid.executors.HorndroidExecutor - ...done in 54 milliseconds
2018-37-15 17:37:08.719 [main] DEBUG com.horndroid.executors.HorndroidExecutor - Waiting for treads to terminate...
2018-37-15 17:37:08.720 [main] DEBUG com.horndroid.executors.HorndroidExecutor - ...done in 0 milliseconds
2018-37-15 17:37:08.720 [main] DEBUG com.horndroid.executors.HorndroidExecutor - Executing all queries...
2018-37-15 17:37:08.721 [main] INFO  com.horndroid.z3.FSEngine - Number of the generated queries: 0
2018-37-15 17:37:08.721 [main] DEBUG com.horndroid.executors.HorndroidExecutor - ...done in 1 milliseconds
