{
  "score": 5.099999904632568,
  "md5hash": "2cd4a50d3a2d4c4d024ea15327a59b57",
  "results": [{
    "desc": "Check webview save password disabled or not",
    "sourceStmt": "",
    "custom": "",
    "vulnKind": 0,
    "destMethod": "",
    "paths": [],
    "destStmt": "",
    "sourceMethod": "<edu.ksu.cs.benign.MainActivity: void onResume()>"
  }, {
    "desc": "application is debuggable",
    "sourceStmt": "",
    "custom": "",
    "vulnKind": 3,
    "destMethod": "",
    "paths": [],
    "destStmt": "",
    "sourceMethod": ""
  }]
}