{
  "score": 5.0,
  "md5hash": "ea8b98435e9f5b60ddf6c98fc9b4ffa7",
  "results": [{
    "desc": "application is debuggable",
    "sourceStmt": "",
    "custom": "",
    "vulnKind": 3,
    "destMethod": "",
    "paths": [],
    "destStmt": "",
    "sourceMethod": ""
  }]
}