{
  "score": 5.0,
  "md5hash": "1c537866a9b22b49b9b27e4d9c7f4904",
  "results": [{
    "desc": "application is debuggable",
    "sourceStmt": "",
    "custom": "",
    "vulnKind": 3,
    "destMethod": "",
    "paths": [],
    "destStmt": "",
    "sourceMethod": ""
  }]
}