{
  "score": 5.0,
  "md5hash": "20bd036772f47e1d75eee69ab8ec8ec0",
  "results": [{
    "desc": "application is debuggable",
    "sourceStmt": "",
    "custom": "",
    "vulnKind": 3,
    "destMethod": "",
    "paths": [],
    "destStmt": "",
    "sourceMethod": ""
  }]
}