{
  "score": 5.0,
  "md5hash": "ca4c4612b2734c7a59a15de886bdcd36",
  "results": [{
    "desc": "application is debuggable",
    "sourceStmt": "",
    "custom": "",
    "vulnKind": 3,
    "destMethod": "",
    "paths": [],
    "destStmt": "",
    "sourceMethod": ""
  }]
}