2018-15-15 17:15:01.693 [main] INFO  com.horndroid.Main - Starting fsHornDroid...
2018-15-15 17:15:01.696 [main] INFO  com.horndroid.Main - Flow Sensitive Analysis on 64 bitvectors size
2018-15-15 17:15:01.697 [main] DEBUG com.horndroid.executors.HorndroidExecutor - Parsing sources and sinks...
2018-15-15 17:15:02.040 [main] DEBUG com.horndroid.executors.HorndroidExecutor - done in 342 milliseconds
2018-15-15 17:15:02.040 [main] DEBUG com.horndroid.executors.HorndroidExecutor - Collecting apk files to process...
2018-15-15 17:15:02.040 [main] DEBUG com.horndroid.executors.HorndroidExecutor - done in 0 milliseconds
2018-15-15 17:15:02.069 [main] INFO  com.horndroid.executors.HorndroidExecutor - Analysing InternalStorage-DirectoryTraversal-Lean-benign.apk
2018-15-15 17:15:02.090 [main] DEBUG com.horndroid.executors.HorndroidExecutor - Parsing entry points...
2018-15-15 17:15:02.094 [main] DEBUG com.horndroid.executors.HorndroidExecutor - done in 3 milliseconds
2018-15-15 17:15:02.094 [main] DEBUG com.horndroid.executors.HorndroidExecutor - Parsing callbacks and disabled activities...
2018-15-15 17:15:02.094 [main] INFO  com.horndroid.util.SourceSinkParser - Running apktool to obtain manifest xml and layout files
2018-15-15 17:15:04.231 [main] INFO  com.horndroid.util.SourceSinkParser - Exit Code:0
2018-15-15 17:15:04.247 [main] INFO  com.horndroid.util.SourceSinkParser - STDOUT:I: Using Apktool 2.3.0 on InternalStorage-DirectoryTraversal-Lean-benign.apk
2018-15-15 17:15:04.247 [main] INFO  com.horndroid.util.SourceSinkParser - STDOUT:I: Loading resource table...
2018-15-15 17:15:04.248 [main] INFO  com.horndroid.util.SourceSinkParser - STDOUT:I: Decoding AndroidManifest.xml with resources...
2018-15-15 17:15:04.248 [main] INFO  com.horndroid.util.SourceSinkParser - STDOUT:I: Loading resource table from file: /home/joydeep/.local/share/apktool/framework/1.apk
2018-15-15 17:15:04.248 [main] INFO  com.horndroid.util.SourceSinkParser - STDOUT:I: Regular manifest package...
2018-15-15 17:15:04.248 [main] INFO  com.horndroid.util.SourceSinkParser - STDOUT:I: Decoding file-resources...
2018-15-15 17:15:04.248 [main] INFO  com.horndroid.util.SourceSinkParser - STDOUT:I: Decoding values */* XMLs...
2018-15-15 17:15:04.248 [main] INFO  com.horndroid.util.SourceSinkParser - STDOUT:I: Copying raw classes.dex file...
2018-15-15 17:15:04.248 [main] INFO  com.horndroid.util.SourceSinkParser - STDOUT:I: Copying assets and libs...
2018-15-15 17:15:04.248 [main] INFO  com.horndroid.util.SourceSinkParser - STDOUT:I: Copying unknown files...
2018-15-15 17:15:04.248 [main] INFO  com.horndroid.util.SourceSinkParser - STDOUT:I: Copying original files...
2018-15-15 17:15:04.452 [main] DEBUG com.horndroid.executors.HorndroidExecutor - ...done in 2357 milliseconds
2018-15-15 17:15:04.452 [main] DEBUG com.horndroid.executors.HorndroidExecutor - Sorting classes...
2018-15-15 17:15:04.469 [main] DEBUG com.horndroid.executors.HorndroidExecutor - done in 17 milliseconds
2018-15-15 17:15:04.470 [main] DEBUG com.horndroid.executors.HorndroidExecutor - Collecting data for Horn Clause generation...
2018-15-15 17:15:04.553 [main] DEBUG com.horndroid.executors.HorndroidExecutor - done in 83 milliseconds
2018-15-15 17:15:04.553 [main] DEBUG com.horndroid.executors.HorndroidExecutor - Generating Horn Clauses..
2018-15-15 17:15:04.554 [main] INFO  com.horndroid.analysis.Analysis - Ready to start generating Horn Clauses:
2018-15-15 17:15:04.554 [main] INFO  com.horndroid.analysis.Analysis - Number of classes in APK : 1
2018-15-15 17:15:04.554 [main] INFO  com.horndroid.analysis.Analysis - Number of methods in APK: 3
2018-15-15 17:15:04.555 [main] INFO  com.horndroid.analysis.Analysis - Number of instructions in APK: 96
2018-15-15 17:15:04.555 [main] INFO  com.horndroid.analysis.Analysis - Number of instances in APK: 15
2018-15-15 17:15:04.561 [main] INFO  com.horndroid.analysis.Analysis - Number of sources: 11
2018-15-15 17:15:04.561 [main] INFO  com.horndroid.analysis.Analysis - Number of sinks: 6
2018-15-15 17:15:04.561 [main] INFO  com.horndroid.analysis.Analysis - Number of classes : 1
2018-15-15 17:15:04.561 [main] INFO  com.horndroid.analysis.Analysis - Number of methods: 3
2018-15-15 17:15:04.561 [main] INFO  com.horndroid.analysis.Analysis - Number of instructions: 96
2018-15-15 17:15:04.561 [main] INFO  com.horndroid.analysis.Analysis - Number of instances : 15
2018-15-15 17:15:04.634 [main] DEBUG com.horndroid.executors.HorndroidExecutor - ...done in 80 milliseconds
2018-15-15 17:15:04.634 [main] DEBUG com.horndroid.executors.HorndroidExecutor - Waiting for treads to terminate...
2018-15-15 17:15:04.635 [main] DEBUG com.horndroid.executors.HorndroidExecutor - ...done in 0 milliseconds
2018-15-15 17:15:04.635 [main] DEBUG com.horndroid.executors.HorndroidExecutor - Executing all queries...
2018-15-15 17:15:04.636 [main] INFO  com.horndroid.z3.FSEngine - Number of the generated queries: 20
2018-15-15 17:15:04.682 [main] INFO  com.horndroid.z3.FSEngine - 1 Test if register 4 leaks at line 82 in method onResume()V of the class Ledu/ksu/cs/benign/MainActivity; to the sink d(Ljava/lang/String;Ljava/lang/String;)I:NO LEAK
2018-15-15 17:15:04.794 [main] INFO  com.horndroid.z3.FSEngine - 2 [REF] Test if register 4 leaks at line 82 in method onResume()V of the class Ledu/ksu/cs/benign/MainActivity; to the sink d(Ljava/lang/String;Ljava/lang/String;)I:NO LEAK
2018-15-15 17:15:04.846 [main] INFO  com.horndroid.z3.FSEngine - 3 Test if register 7 leaks at line 82 in method onResume()V of the class Ledu/ksu/cs/benign/MainActivity; to the sink d(Ljava/lang/String;Ljava/lang/String;)I:NO LEAK
2018-15-15 17:15:04.902 [main] INFO  com.horndroid.z3.FSEngine - 4 [REF] Test if register 7 leaks at line 82 in method onResume()V of the class Ledu/ksu/cs/benign/MainActivity; to the sink d(Ljava/lang/String;Ljava/lang/String;)I:NO LEAK
2018-15-15 17:15:04.951 [main] INFO  com.horndroid.z3.FSEngine - 5 Test if register 8 leaks at line 113 in method onResume()V of the class Ledu/ksu/cs/benign/MainActivity; to the sink d(Ljava/lang/String;Ljava/lang/String;)I:NO LEAK
2018-15-15 17:15:04.988 [main] INFO  com.horndroid.z3.FSEngine - 6 [REF] Test if register 8 leaks at line 113 in method onResume()V of the class Ledu/ksu/cs/benign/MainActivity; to the sink d(Ljava/lang/String;Ljava/lang/String;)I:NO LEAK
2018-15-15 17:15:05.023 [main] INFO  com.horndroid.z3.FSEngine - 7 Test if register 7 leaks at line 113 in method onResume()V of the class Ledu/ksu/cs/benign/MainActivity; to the sink d(Ljava/lang/String;Ljava/lang/String;)I:NO LEAK
2018-15-15 17:15:05.055 [main] INFO  com.horndroid.z3.FSEngine - 8 [REF] Test if register 7 leaks at line 113 in method onResume()V of the class Ledu/ksu/cs/benign/MainActivity; to the sink d(Ljava/lang/String;Ljava/lang/String;)I:NO LEAK
2018-15-15 17:15:05.087 [main] INFO  com.horndroid.z3.FSEngine - 9 Test if register 8 leaks at line 128 in method onResume()V of the class Ledu/ksu/cs/benign/MainActivity; to the sink d(Ljava/lang/String;Ljava/lang/String;)I:NO LEAK
2018-15-15 17:15:05.118 [main] INFO  com.horndroid.z3.FSEngine - 10 [REF] Test if register 8 leaks at line 128 in method onResume()V of the class Ledu/ksu/cs/benign/MainActivity; to the sink d(Ljava/lang/String;Ljava/lang/String;)I:NO LEAK
2018-15-15 17:15:05.151 [main] INFO  com.horndroid.z3.FSEngine - 11 Test if register 7 leaks at line 128 in method onResume()V of the class Ledu/ksu/cs/benign/MainActivity; to the sink d(Ljava/lang/String;Ljava/lang/String;)I:NO LEAK
2018-15-15 17:15:05.183 [main] INFO  com.horndroid.z3.FSEngine - 12 [REF] Test if register 7 leaks at line 128 in method onResume()V of the class Ledu/ksu/cs/benign/MainActivity; to the sink d(Ljava/lang/String;Ljava/lang/String;)I:NO LEAK
2018-15-15 17:15:05.214 [main] INFO  com.horndroid.z3.FSEngine - 13 Test if register 3 leaks at line 137 in method onResume()V of the class Ledu/ksu/cs/benign/MainActivity; to the sink append(Ljava/lang/CharSequence;)Ljava/io/Writer;:NO LEAK
2018-15-15 17:15:05.245 [main] INFO  com.horndroid.z3.FSEngine - 14 [REF] Test if register 3 leaks at line 137 in method onResume()V of the class Ledu/ksu/cs/benign/MainActivity; to the sink append(Ljava/lang/CharSequence;)Ljava/io/Writer;:NO LEAK
2018-15-15 17:15:05.277 [main] INFO  com.horndroid.z3.FSEngine - 15 Test if register 5 leaks at line 137 in method onResume()V of the class Ledu/ksu/cs/benign/MainActivity; to the sink append(Ljava/lang/CharSequence;)Ljava/io/Writer;:NO LEAK
2018-15-15 17:15:05.326 [main] INFO  com.horndroid.z3.FSEngine - 16 [REF] Test if register 5 leaks at line 137 in method onResume()V of the class Ledu/ksu/cs/benign/MainActivity; to the sink append(Ljava/lang/CharSequence;)Ljava/io/Writer;:NO LEAK
2018-15-15 17:15:05.381 [main] INFO  com.horndroid.z3.FSEngine - 17 Test if register 8 leaks at line 153 in method onResume()V of the class Ledu/ksu/cs/benign/MainActivity; to the sink d(Ljava/lang/String;Ljava/lang/String;)I:NO LEAK
2018-15-15 17:15:05.428 [main] INFO  com.horndroid.z3.FSEngine - 18 [REF] Test if register 8 leaks at line 153 in method onResume()V of the class Ledu/ksu/cs/benign/MainActivity; to the sink d(Ljava/lang/String;Ljava/lang/String;)I:NO LEAK
2018-15-15 17:15:05.496 [main] INFO  com.horndroid.z3.FSEngine - 19 Test if register 7 leaks at line 153 in method onResume()V of the class Ledu/ksu/cs/benign/MainActivity; to the sink d(Ljava/lang/String;Ljava/lang/String;)I:NO LEAK
2018-15-15 17:15:05.544 [main] INFO  com.horndroid.z3.FSEngine - 20 [REF] Test if register 7 leaks at line 153 in method onResume()V of the class Ledu/ksu/cs/benign/MainActivity; to the sink d(Ljava/lang/String;Ljava/lang/String;)I:NO LEAK
2018-15-15 17:15:05.545 [main] DEBUG com.horndroid.executors.HorndroidExecutor - ...done in 909 milliseconds
