2018-08-15 18:08:44.716 [main] INFO  com.horndroid.Main - Starting fsHornDroid...
2018-08-15 18:08:44.719 [main] INFO  com.horndroid.Main - Flow Sensitive Analysis on 64 bitvectors size
2018-08-15 18:08:44.720 [main] DEBUG com.horndroid.executors.HorndroidExecutor - Parsing sources and sinks...
2018-08-15 18:08:44.964 [main] DEBUG com.horndroid.executors.HorndroidExecutor - done in 243 milliseconds
2018-08-15 18:08:44.964 [main] DEBUG com.horndroid.executors.HorndroidExecutor - Collecting apk files to process...
2018-08-15 18:08:44.964 [main] DEBUG com.horndroid.executors.HorndroidExecutor - done in 0 milliseconds
2018-08-15 18:08:44.993 [main] INFO  com.horndroid.executors.HorndroidExecutor - Analysing CheckPermission-PrivilegeEscalation-Lean-secure.apk
2018-08-15 18:08:45.026 [main] DEBUG com.horndroid.executors.HorndroidExecutor - Parsing entry points...
2018-08-15 18:08:45.031 [main] DEBUG com.horndroid.executors.HorndroidExecutor - done in 5 milliseconds
2018-08-15 18:08:45.031 [main] DEBUG com.horndroid.executors.HorndroidExecutor - Parsing callbacks and disabled activities...
2018-08-15 18:08:45.031 [main] INFO  com.horndroid.util.SourceSinkParser - Running apktool to obtain manifest xml and layout files
2018-08-15 18:08:47.144 [main] INFO  com.horndroid.util.SourceSinkParser - Exit Code:0
2018-08-15 18:08:47.156 [main] INFO  com.horndroid.util.SourceSinkParser - STDOUT:I: Using Apktool 2.3.0 on CheckPermission-PrivilegeEscalation-Lean-secure.apk
2018-08-15 18:08:47.156 [main] INFO  com.horndroid.util.SourceSinkParser - STDOUT:I: Loading resource table...
2018-08-15 18:08:47.157 [main] INFO  com.horndroid.util.SourceSinkParser - STDOUT:I: Decoding AndroidManifest.xml with resources...
2018-08-15 18:08:47.157 [main] INFO  com.horndroid.util.SourceSinkParser - STDOUT:I: Loading resource table from file: /home/joydeep/.local/share/apktool/framework/1.apk
2018-08-15 18:08:47.157 [main] INFO  com.horndroid.util.SourceSinkParser - STDOUT:I: Regular manifest package...
2018-08-15 18:08:47.157 [main] INFO  com.horndroid.util.SourceSinkParser - STDOUT:I: Decoding file-resources...
2018-08-15 18:08:47.157 [main] INFO  com.horndroid.util.SourceSinkParser - STDOUT:I: Decoding values */* XMLs...
2018-08-15 18:08:47.157 [main] INFO  com.horndroid.util.SourceSinkParser - STDOUT:I: Copying raw classes.dex file...
2018-08-15 18:08:47.157 [main] INFO  com.horndroid.util.SourceSinkParser - STDOUT:I: Copying assets and libs...
2018-08-15 18:08:47.157 [main] INFO  com.horndroid.util.SourceSinkParser - STDOUT:I: Copying unknown files...
2018-08-15 18:08:47.158 [main] INFO  com.horndroid.util.SourceSinkParser - STDOUT:I: Copying original files...
2018-08-15 18:08:47.390 [main] DEBUG com.horndroid.executors.HorndroidExecutor - ...done in 2358 milliseconds
2018-08-15 18:08:47.390 [main] DEBUG com.horndroid.executors.HorndroidExecutor - Sorting classes...
2018-08-15 18:08:47.407 [main] DEBUG com.horndroid.executors.HorndroidExecutor - done in 16 milliseconds
2018-08-15 18:08:47.407 [main] DEBUG com.horndroid.executors.HorndroidExecutor - Collecting data for Horn Clause generation...
2018-08-15 18:08:47.490 [main] DEBUG com.horndroid.executors.HorndroidExecutor - done in 83 milliseconds
2018-08-15 18:08:47.491 [main] DEBUG com.horndroid.executors.HorndroidExecutor - Generating Horn Clauses..
2018-08-15 18:08:47.491 [main] INFO  com.horndroid.analysis.Analysis - Ready to start generating Horn Clauses:
2018-08-15 18:08:47.492 [main] INFO  com.horndroid.analysis.Analysis - Number of classes in APK : 3
2018-08-15 18:08:47.492 [main] INFO  com.horndroid.analysis.Analysis - Number of methods in APK: 10
2018-08-15 18:08:47.492 [main] INFO  com.horndroid.analysis.Analysis - Number of instructions in APK: 117
2018-08-15 18:08:47.492 [main] INFO  com.horndroid.analysis.Analysis - Number of instances in APK: 23
2018-08-15 18:08:47.498 [main] INFO  com.horndroid.analysis.Analysis - Number of sources: 12
2018-08-15 18:08:47.498 [main] INFO  com.horndroid.analysis.Analysis - Number of sinks: 5
2018-08-15 18:08:47.498 [main] INFO  com.horndroid.analysis.Analysis - Number of classes : 3
2018-08-15 18:08:47.499 [main] INFO  com.horndroid.analysis.Analysis - Number of methods: 10
2018-08-15 18:08:47.499 [main] INFO  com.horndroid.analysis.Analysis - Number of instructions: 117
2018-08-15 18:08:47.499 [main] INFO  com.horndroid.analysis.Analysis - Number of instances : 23
2018-08-15 18:08:47.575 [main] DEBUG com.horndroid.executors.HorndroidExecutor - ...done in 84 milliseconds
2018-08-15 18:08:47.575 [main] DEBUG com.horndroid.executors.HorndroidExecutor - Waiting for treads to terminate...
2018-08-15 18:08:47.575 [main] DEBUG com.horndroid.executors.HorndroidExecutor - ...done in 0 milliseconds
2018-08-15 18:08:47.575 [main] DEBUG com.horndroid.executors.HorndroidExecutor - Executing all queries...
2018-08-15 18:08:47.576 [main] INFO  com.horndroid.z3.FSEngine - Number of the generated queries: 20
2018-08-15 18:08:47.646 [main] INFO  com.horndroid.z3.FSEngine - 1 Test if register 2 leaks at line 6 in method onStartCommand(Landroid/content/Intent;II)I of the class Ledu/ksu/cs/benign/MyService; to the sink d(Ljava/lang/String;Ljava/lang/String;)I:NO LEAK
2018-08-15 18:08:48.006 [main] INFO  com.horndroid.z3.FSEngine - 2 [REF] Test if register 2 leaks at line 6 in method onStartCommand(Landroid/content/Intent;II)I of the class Ledu/ksu/cs/benign/MyService; to the sink d(Ljava/lang/String;Ljava/lang/String;)I:NO LEAK
2018-08-15 18:08:48.071 [main] INFO  com.horndroid.z3.FSEngine - 3 Test if register 1 leaks at line 6 in method onStartCommand(Landroid/content/Intent;II)I of the class Ledu/ksu/cs/benign/MyService; to the sink d(Ljava/lang/String;Ljava/lang/String;)I:NO LEAK
2018-08-15 18:08:48.359 [main] INFO  com.horndroid.z3.FSEngine - 4 [REF] Test if register 1 leaks at line 6 in method onStartCommand(Landroid/content/Intent;II)I of the class Ledu/ksu/cs/benign/MyService; to the sink d(Ljava/lang/String;Ljava/lang/String;)I:NO LEAK
2018-08-15 18:08:48.425 [main] INFO  com.horndroid.z3.FSEngine - 5 Test if register 1 leaks at line 26 in method onResume()V of the class Ledu/ksu/cs/benign/MainActivity; to the sink d(Ljava/lang/String;Ljava/lang/String;)I:NO LEAK
2018-08-15 18:08:48.490 [main] INFO  com.horndroid.z3.FSEngine - 6 [REF] Test if register 1 leaks at line 26 in method onResume()V of the class Ledu/ksu/cs/benign/MainActivity; to the sink d(Ljava/lang/String;Ljava/lang/String;)I:NO LEAK
2018-08-15 18:08:48.557 [main] INFO  com.horndroid.z3.FSEngine - 7 Test if register 0 leaks at line 26 in method onResume()V of the class Ledu/ksu/cs/benign/MainActivity; to the sink d(Ljava/lang/String;Ljava/lang/String;)I:NO LEAK
2018-08-15 18:08:48.621 [main] INFO  com.horndroid.z3.FSEngine - 8 [REF] Test if register 0 leaks at line 26 in method onResume()V of the class Ledu/ksu/cs/benign/MainActivity; to the sink d(Ljava/lang/String;Ljava/lang/String;)I:NO LEAK
2018-08-15 18:08:48.684 [main] INFO  com.horndroid.z3.FSEngine - 9 Test if register 1 leaks at line 50 in method onResume()V of the class Ledu/ksu/cs/benign/MainActivity; to the sink d(Ljava/lang/String;Ljava/lang/String;)I:NO LEAK
2018-08-15 18:08:48.748 [main] INFO  com.horndroid.z3.FSEngine - 10 [REF] Test if register 1 leaks at line 50 in method onResume()V of the class Ledu/ksu/cs/benign/MainActivity; to the sink d(Ljava/lang/String;Ljava/lang/String;)I:NO LEAK
2018-08-15 18:08:48.813 [main] INFO  com.horndroid.z3.FSEngine - 11 Test if register 0 leaks at line 50 in method onResume()V of the class Ledu/ksu/cs/benign/MainActivity; to the sink d(Ljava/lang/String;Ljava/lang/String;)I:NO LEAK
2018-08-15 18:08:48.877 [main] INFO  com.horndroid.z3.FSEngine - 12 [REF] Test if register 0 leaks at line 50 in method onResume()V of the class Ledu/ksu/cs/benign/MainActivity; to the sink d(Ljava/lang/String;Ljava/lang/String;)I:NO LEAK
2018-08-15 18:08:48.941 [main] INFO  com.horndroid.z3.FSEngine - 13 Test if register 1 leaks at line 9 in method onRequestPermissionsResult(I[Ljava/lang/String;[I)V of the class Ledu/ksu/cs/benign/MainActivity; to the sink d(Ljava/lang/String;Ljava/lang/String;)I:NO LEAK
2018-08-15 18:08:49.005 [main] INFO  com.horndroid.z3.FSEngine - 14 [REF] Test if register 1 leaks at line 9 in method onRequestPermissionsResult(I[Ljava/lang/String;[I)V of the class Ledu/ksu/cs/benign/MainActivity; to the sink d(Ljava/lang/String;Ljava/lang/String;)I:NO LEAK
2018-08-15 18:08:49.068 [main] INFO  com.horndroid.z3.FSEngine - 15 Test if register 0 leaks at line 9 in method onRequestPermissionsResult(I[Ljava/lang/String;[I)V of the class Ledu/ksu/cs/benign/MainActivity; to the sink d(Ljava/lang/String;Ljava/lang/String;)I:NO LEAK
2018-08-15 18:08:49.131 [main] INFO  com.horndroid.z3.FSEngine - 16 [REF] Test if register 0 leaks at line 9 in method onRequestPermissionsResult(I[Ljava/lang/String;[I)V of the class Ledu/ksu/cs/benign/MainActivity; to the sink d(Ljava/lang/String;Ljava/lang/String;)I:NO LEAK
2018-08-15 18:08:49.194 [main] INFO  com.horndroid.z3.FSEngine - 17 Test if register 1 leaks at line 27 in method onRequestPermissionsResult(I[Ljava/lang/String;[I)V of the class Ledu/ksu/cs/benign/MainActivity; to the sink d(Ljava/lang/String;Ljava/lang/String;)I:NO LEAK
2018-08-15 18:08:49.260 [main] INFO  com.horndroid.z3.FSEngine - 18 [REF] Test if register 1 leaks at line 27 in method onRequestPermissionsResult(I[Ljava/lang/String;[I)V of the class Ledu/ksu/cs/benign/MainActivity; to the sink d(Ljava/lang/String;Ljava/lang/String;)I:NO LEAK
2018-08-15 18:08:49.325 [main] INFO  com.horndroid.z3.FSEngine - 19 Test if register 0 leaks at line 27 in method onRequestPermissionsResult(I[Ljava/lang/String;[I)V of the class Ledu/ksu/cs/benign/MainActivity; to the sink d(Ljava/lang/String;Ljava/lang/String;)I:NO LEAK
2018-08-15 18:08:49.390 [main] INFO  com.horndroid.z3.FSEngine - 20 [REF] Test if register 0 leaks at line 27 in method onRequestPermissionsResult(I[Ljava/lang/String;[I)V of the class Ledu/ksu/cs/benign/MainActivity; to the sink d(Ljava/lang/String;Ljava/lang/String;)I:NO LEAK
2018-08-15 18:08:49.390 [main] DEBUG com.horndroid.executors.HorndroidExecutor - ...done in 1814 milliseconds
