{
  "score": 5.0,
  "md5hash": "1f314d370c700d8a9bef4e78e5277ba8",
  "results": [{
    "desc": "application is debuggable",
    "sourceStmt": "",
    "custom": "",
    "vulnKind": 3,
    "destMethod": "",
    "paths": [],
    "destStmt": "",
    "sourceMethod": ""
  }]
}