Application Name: UnEncryptedSocketComm-MITM-Lean-benign.apk
Uses Permissions: android.permission.INTERNET

Component edu.ksu.cs.benign.MainActivity
  Component type: activity
  Exported: true
  Dynamic Registered: false
  Required Permission: 
  IntentFilters:
    IntentFilter:(Actions:["android.intent.action.MAIN"],Categories:["android.intent.category.LAUNCHER"])

  Inter-component communication (ICC) Result:
    ICC call details are listed below:
      Caller Procedure: Landroid/content/ContextWrapper;.startService:(Landroid/content/Intent;)Landroid/content/ComponentName;
      Caller Context: (1.onClick,L10d18c)(MainActivity.envMain,L19)
      Outgoing Intents via this call:
        Intent:
          Component Names:
            edu.ksu.cs.benign.MyIntentService
          Explicit: true
          Precise: true
          ICC Targets:
            edu.ksu.cs.benign.MyIntentService

Component edu.ksu.cs.benign.MyIntentService
  Component type: service
  Exported: false
  Dynamic Registered: false
  Required Permission: 
  IntentFilters:

  Inter-component communication (ICC) Result:
    ICC call details are listed below:
      Caller Procedure: Landroid/content/ContextWrapper;.startActivity:(Landroid/content/Intent;)V
      Caller Context: (MyIntentService.result,L10d238)(MyIntentService.env,L41)
      Outgoing Intents via this call:
        Intent:
          Component Names:
            edu.ksu.cs.benign.Result
          Explicit: true
          Precise: true
          ICC Targets:
            edu.ksu.cs.benign.Result
    ICC call details are listed below:
      Caller Procedure: Landroid/content/ContextWrapper;.startActivity:(Landroid/content/Intent;)V
      Caller Context: (MyIntentService.result,L10d238)(MyIntentService.onHandleIntent,L10d3ce)
      Outgoing Intents via this call:
        Intent:
          Component Names:
            edu.ksu.cs.benign.Result
          Explicit: true
          Precise: true
          ICC Targets:
            edu.ksu.cs.benign.Result
    ICC call details are listed below:
      Caller Procedure: Landroid/content/ContextWrapper;.startActivity:(Landroid/content/Intent;)V
      Caller Context: (MyIntentService.result,L10d238)(MyIntentService.onHandleIntent,L10d440)
      Outgoing Intents via this call:
        Intent:
          Component Names:
            edu.ksu.cs.benign.Result
          Explicit: true
          Precise: true
          ICC Targets:
            edu.ksu.cs.benign.Result

Component edu.ksu.cs.benign.Result
  Component type: activity
  Exported: false
  Dynamic Registered: false
  Required Permission: 
  IntentFilters:

  Inter-component communication (ICC) Result:



Taint analysis result:
  Sources found:
  Sinks found:
    <Descriptors: api_sink: Landroid/util/Log;.d:(Ljava/lang/String;Ljava/lang/String;)I 1>
    <Descriptors: api_sink: Landroid/util/Log;.d:(Ljava/lang/String;Ljava/lang/String;)I 0>
    <Descriptors: api_sink: Landroid/util/Log;.d:(Ljava/lang/String;Ljava/lang/String;)I 1>
    <Descriptors: api_sink: Landroid/util/Log;.d:(Ljava/lang/String;Ljava/lang/String;)I 0>
    <Descriptors: api_sink: Landroid/util/Log;.d:(Ljava/lang/String;Ljava/lang/String;)I 1>
    <Descriptors: api_sink: Landroid/util/Log;.d:(Ljava/lang/String;Ljava/lang/String;)I 0>
    <Descriptors: api_sink: Landroid/util/Log;.d:(Ljava/lang/String;Ljava/lang/String;)I 1>
    <Descriptors: api_sink: Landroid/util/Log;.d:(Ljava/lang/String;Ljava/lang/String;)I 0>
    <Descriptors: api_sink: Landroid/util/Log;.d:(Ljava/lang/String;Ljava/lang/String;)I 0>
    <Descriptors: api_sink: Landroid/util/Log;.d:(Ljava/lang/String;Ljava/lang/String;)I 1>
    <Descriptors: api_sink: Landroid/util/Log;.d:(Ljava/lang/String;Ljava/lang/String;)I 1>
    <Descriptors: api_sink: Landroid/util/Log;.d:(Ljava/lang/String;Ljava/lang/String;)I 0>
    <Descriptors: api_sink: Ljava/net/Socket;.connect:(Ljava/net/SocketAddress;)V 1>
  Discovered taint paths are listed below:
