{
  "score": 5.0,
  "md5hash": "5f4fd6dcc0475dc9afa6743c9cc3bc3a",
  "results": [{
    "desc": "application is debuggable",
    "sourceStmt": "",
    "custom": "",
    "vulnKind": 3,
    "destMethod": "",
    "paths": [],
    "destStmt": "",
    "sourceMethod": ""
  }]
}