{
  "score": 5.0,
  "md5hash": "24bd67f9e981dd7bc23bab1cd0836833",
  "results": [{
    "desc": "application is debuggable",
    "sourceStmt": "",
    "custom": "",
    "vulnKind": 3,
    "destMethod": "",
    "paths": [],
    "destStmt": "",
    "sourceMethod": ""
  }]
}