Application Name: WebViewInterceptRequest-MITM-Lean-benign.apk
Uses Permissions: android.permission.INTERNET

Component edu.ksu.cs.benign.MainActivity
  Component type: activity
  Exported: true
  Dynamic Registered: false
  Required Permission: 
  IntentFilters:
    IntentFilter:(Actions:["android.intent.action.MAIN"],Categories:["android.intent.category.LAUNCHER"])

  Inter-component communication (ICC) Result:



Taint analysis result:
  Sources found:
  Sinks found:
    <Descriptors: api_sink: Landroid/content/SharedPreferences$Editor?;.putString:(Ljava/lang/String;Ljava/lang/String;)Landroid/content/SharedPreferences$Editor; 1>
    <Descriptors: api_sink: Landroid/util/Log;.d:(Ljava/lang/String;Ljava/lang/String;)I 1>
    <Descriptors: api_sink: Landroid/content/SharedPreferences$Editor?;.putString:(Ljava/lang/String;Ljava/lang/String;)Landroid/content/SharedPreferences$Editor; 2>
    <Descriptors: api_sink: Landroid/util/Log;.d:(Ljava/lang/String;Ljava/lang/String;)I 0>
    <Descriptors: api_sink: Landroid/util/Log;.d:(Ljava/lang/String;Ljava/lang/String;)I 1>
    <Descriptors: api_sink: Landroid/util/Log;.d:(Ljava/lang/String;Ljava/lang/String;)I 0>
  Discovered taint paths are listed below:
