{
  "score": 5.0,
  "md5hash": "126ce376075a2c88d6cb8ed8659a1c30",
  "results": [{
    "desc": "application is debuggable",
    "sourceStmt": "",
    "custom": "",
    "vulnKind": 3,
    "destMethod": "",
    "paths": [],
    "destStmt": "",
    "sourceMethod": ""
  }]
}