Application Name: OpenSocket-InformationLeak-Lean-benign.apk
Uses Permissions: android.permission.INTERNET

Component edu.ksu.cs.benign.MainActivity
  Component type: activity
  Exported: true
  Dynamic Registered: false
  Required Permission: 
  IntentFilters:
    IntentFilter:(Actions:["android.intent.action.MAIN"],Categories:["android.intent.category.LAUNCHER"])

  Inter-component communication (ICC) Result:
    ICC call details are listed below:
      Caller Procedure: Landroid/content/ContextWrapper;.startService:(Landroid/content/Intent;)Landroid/content/ComponentName;
      Caller Context: (1.onClick,L0f400a)(MainActivity.envMain,L19)
      Outgoing Intents via this call:
        Intent:
          Component Names:
            edu.ksu.cs.benign.MyIntentService
          Explicit: true
          Precise: true
          ICC Targets:
            edu.ksu.cs.benign.MyIntentService

Component edu.ksu.cs.benign.MyIntentService
  Component type: service
  Exported: false
  Dynamic Registered: false
  Required Permission: 
  IntentFilters:

  Inter-component communication (ICC) Result:



Taint analysis result:
  Sources found:
  Sinks found:
    <Descriptors: api_sink: Landroid/util/Log;.d:(Ljava/lang/String;Ljava/lang/String;)I 1>
    <Descriptors: api_sink: Landroid/util/Log;.e:(Ljava/lang/String;Ljava/lang/String;Ljava/lang/Throwable;)I 2>
    <Descriptors: api_sink: Landroid/util/Log;.e:(Ljava/lang/String;Ljava/lang/String;Ljava/lang/Throwable;)I 0>
    <Descriptors: api_sink: Landroid/util/Log;.d:(Ljava/lang/String;Ljava/lang/String;)I 0>
    <Descriptors: api_sink: Ljava/io/FileOutputStream;.write:([B)V 1>
    <Descriptors: api_sink: Landroid/util/Log;.d:(Ljava/lang/String;Ljava/lang/String;)I 0>
    <Descriptors: api_sink: Landroid/util/Log;.d:(Ljava/lang/String;Ljava/lang/String;)I 1>
    <Descriptors: api_sink: Landroid/util/Log;.d:(Ljava/lang/String;Ljava/lang/String;)I 1>
    <Descriptors: api_sink: Ljava/io/OutputStream;.write:(I)V 1>
    <Descriptors: api_sink: Landroid/util/Log;.e:(Ljava/lang/String;Ljava/lang/String;Ljava/lang/Throwable;)I 1>
    <Descriptors: api_sink: Landroid/util/Log;.d:(Ljava/lang/String;Ljava/lang/String;)I 0>
  Discovered taint paths are listed below:
