Application Name: InternalToExternalStorage-InformationLeak-Lean-secure.apk
Uses Permissions: edu.ksu.cs.SecurePermission

Component edu.ksu.cs.benign.DownloadService
  Component type: service
  Exported: true
  Dynamic Registered: false
  Required Permission: edu.ksu.cs.SecurePermission
  IntentFilters:
    IntentFilter:(Actions:["edu.ksu.cs.benign.DOWNLOAD"],Categories:["android.intent.category.DEFAULT"])

  Inter-component communication (ICC) Result:
    ICC call details are listed below:
      Caller Procedure: Landroid/content/ContextWrapper;.sendBroadcast:(Landroid/content/Intent;)V
      Caller Context: (DownloadService.onHandleIntent,L10d56c)(DownloadService.envMain,L8)
      Outgoing Intents via this call:
        Intent:
          Explicit: false
          Precise: false

Component edu.ksu.cs.benign.MainActivity
  Component type: activity
  Exported: true
  Dynamic Registered: false
  Required Permission: 
  IntentFilters:
    IntentFilter:(Actions:["android.intent.action.MAIN"],Categories:["android.intent.category.LAUNCHER"])

  Inter-component communication (ICC) Result:
    ICC call details are listed below:
      Caller Procedure: Landroid/content/ContextWrapper;.startService:(Landroid/content/Intent;)Landroid/content/ComponentName;
      Caller Context: (2.onClick,L10d922)(MainActivity.envMain,L35)
      Outgoing Intents via this call:
        Intent:
          Component Names:
            edu.ksu.cs.benign.DownloadService
          Explicit: true
          Precise: true
          ICC Targets:
            edu.ksu.cs.benign.DownloadService


Taint analysis result:
  Sources found:
  Sinks found:
    <Descriptors: api_sink: Landroid/util/Log;.d:(Ljava/lang/String;Ljava/lang/String;)I 0>
    <Descriptors: api_sink: Landroid/util/Log;.d:(Ljava/lang/String;Ljava/lang/String;)I 0>
    <Descriptors: api_sink: Ljava/io/FileOutputStream;.write:([B)V 1>
    <Descriptors: api_sink: Landroid/util/Log;.d:(Ljava/lang/String;Ljava/lang/String;)I 0>
    <Descriptors: api_sink: Landroid/util/Log;.d:(Ljava/lang/String;Ljava/lang/String;)I 1>
    <Descriptors: api_sink: Landroid/content/ContextWrapper;.sendBroadcast:(Landroid/content/Intent;)V 1>
    <Descriptors: api_sink: Landroid/util/Log;.d:(Ljava/lang/String;Ljava/lang/String;)I 1>
    <Descriptors: api_sink: Landroid/util/Log;.d:(Ljava/lang/String;Ljava/lang/String;)I 0>
    <Descriptors: api_sink: Landroid/util/Log;.d:(Ljava/lang/String;Ljava/lang/String;)I 1>
    <Descriptors: api_sink: Landroid/util/Log;.d:(Ljava/lang/String;Ljava/lang/String;)I 1>
    <Descriptors: api_sink: Ljava/io/FileOutputStream;.write:([B)V 1>
  Discovered taint paths are listed below:
