{
  "score": 15.0,
  "md5hash": "863012ce37dac9a4af598963a0c1d951",
  "results": [{
    "desc": "application is debuggable",
    "sourceStmt": "",
    "custom": "",
    "vulnKind": 3,
    "destMethod": "",
    "paths": [],
    "destStmt": "",
    "sourceMethod": ""
  }, {
    "desc": "implicit intent or receiver",
    "sourceStmt": "virtualinvoke $r7.<edu.ksu.cs.benign.MainActivity: void sendBroadcast(android.content.Intent)>($r2)",
    "custom": "",
    "vulnKind": 0,
    "destMethod": "",
    "paths": [],
    "destStmt": "",
    "sourceMethod": "<edu.ksu.cs.benign.MainActivity$1: void onClick(android.view.View)>"
  }]
}