{
  "score": 5.0,
  "md5hash": "0cf64d475a616531fa3c2c20f95f18cb",
  "results": [{
    "desc": "application is debuggable",
    "sourceStmt": "",
    "custom": "",
    "vulnKind": 3,
    "destMethod": "",
    "paths": [],
    "destStmt": "",
    "sourceMethod": ""
  }]
}