Application Name: UnEncryptedSocketComm-MITM-Lean-secure.apk
Uses Permissions: 

Component edu.ksu.cs.secure.MyIntentService
  Component type: service
  Exported: false
  Dynamic Registered: false
  Required Permission: 
  IntentFilters:

  Inter-component communication (ICC) Result:
    ICC call details are listed below:
      Caller Procedure: Landroid/content/ContextWrapper;.startActivity:(Landroid/content/Intent;)V
      Caller Context: (MyIntentService.result,L10d250)(MyIntentService.onHandleIntent,L10d3cc)
      Outgoing Intents via this call:
        Intent:
          Component Names:
            edu.ksu.cs.secure.Result
          Explicit: true
          Precise: true
          ICC Targets:
            edu.ksu.cs.secure.Result
    ICC call details are listed below:
      Caller Procedure: Landroid/content/ContextWrapper;.startActivity:(Landroid/content/Intent;)V
      Caller Context: (MyIntentService.result,L10d250)(MyIntentService.onHandleIntent,L10d3bc)
      Outgoing Intents via this call:
        Intent:
          Component Names:
            edu.ksu.cs.secure.Result
          Explicit: true
          Precise: true
          ICC Targets:
            edu.ksu.cs.secure.Result
    ICC call details are listed below:
      Caller Procedure: Landroid/content/ContextWrapper;.startActivity:(Landroid/content/Intent;)V
      Caller Context: (MyIntentService.result,L10d250)(MyIntentService.env,L13)
      Outgoing Intents via this call:
        Intent:
          Component Names:
            edu.ksu.cs.secure.Result
          Explicit: true
          Precise: true
          ICC Targets:
            edu.ksu.cs.secure.Result

Component edu.ksu.cs.secure.MainActivity
  Component type: activity
  Exported: true
  Dynamic Registered: false
  Required Permission: 
  IntentFilters:
    IntentFilter:(Actions:["android.intent.action.MAIN"],Categories:["android.intent.category.LAUNCHER"])

  Inter-component communication (ICC) Result:
    ICC call details are listed below:
      Caller Procedure: Landroid/content/ContextWrapper;.startService:(Landroid/content/Intent;)Landroid/content/ComponentName;
      Caller Context: (1.onClick,L10d1ac)(MainActivity.envMain,L40)
      Outgoing Intents via this call:
        Intent:
          Component Names:
            edu.ksu.cs.secure.MyIntentService
          Explicit: true
          Precise: true
          ICC Targets:
            edu.ksu.cs.secure.MyIntentService

Component edu.ksu.cs.secure.Result
  Component type: activity
  Exported: false
  Dynamic Registered: false
  Required Permission: 
  IntentFilters:

  Inter-component communication (ICC) Result:



Taint analysis result:
  Sources found:
  Sinks found:
    <Descriptors: api_sink: Landroid/util/Log;.d:(Ljava/lang/String;Ljava/lang/String;)I 0>
    <Descriptors: api_sink: Landroid/util/Log;.d:(Ljava/lang/String;Ljava/lang/String;)I 1>
    <Descriptors: api_sink: Landroid/util/Log;.d:(Ljava/lang/String;Ljava/lang/String;)I 1>
    <Descriptors: api_sink: Landroid/util/Log;.d:(Ljava/lang/String;Ljava/lang/String;)I 1>
    <Descriptors: api_sink: Landroid/util/Log;.d:(Ljava/lang/String;Ljava/lang/String;)I 0>
    <Descriptors: api_sink: Landroid/util/Log;.d:(Ljava/lang/String;Ljava/lang/String;)I 1>
    <Descriptors: api_sink: Ljava/net/Socket;.connect:(Ljava/net/SocketAddress;)V 1>
    <Descriptors: api_sink: Landroid/util/Log;.d:(Ljava/lang/String;Ljava/lang/String;)I 0>
    <Descriptors: api_sink: Landroid/util/Log;.d:(Ljava/lang/String;Ljava/lang/String;)I 0>
    <Descriptors: api_sink: Landroid/util/Log;.d:(Ljava/lang/String;Ljava/lang/String;)I 1>
    <Descriptors: api_sink: Landroid/util/Log;.d:(Ljava/lang/String;Ljava/lang/String;)I 0>
  Discovered taint paths are listed below:
