{
  "score": 5.0,
  "md5hash": "8f7e6bf7a66b33e26eb05cac0e1b07ba",
  "results": [{
    "desc": "application is debuggable",
    "sourceStmt": "",
    "custom": "",
    "vulnKind": 3,
    "destMethod": "",
    "paths": [],
    "destStmt": "",
    "sourceMethod": ""
  }]
}