{
  "score": 5.0,
  "md5hash": "6f4253e9c1ce26d61f053de8a5f1a171",
  "results": [{
    "desc": "application is debuggable",
    "sourceStmt": "",
    "custom": "",
    "vulnKind": 3,
    "destMethod": "",
    "paths": [],
    "destStmt": "",
    "sourceMethod": ""
  }]
}