Application Name: SQLlite-RawQuery-SQLInjection-Lean-benign.apk
Uses Permissions: 

Component edu.ksu.cs.benign.MainActivity
  Component type: activity
  Exported: true
  Dynamic Registered: false
  Required Permission: 
  IntentFilters:
    IntentFilter:(Actions:["android.intent.action.MAIN"],Categories:["android.intent.category.LAUNCHER"])

  Inter-component communication (ICC) Result:


Component edu.ksu.cs.benign.MiddleActivity
  Component type: activity
  Exported: true
  Dynamic Registered: false
  Required Permission: 
  IntentFilters:
    IntentFilter:(Actions:["edu.ksu.cs.benign.DB"],Categories:["android.intent.category.DEFAULT"])

  Inter-component communication (ICC) Result:



Taint analysis result:
  Sources found:
  Sinks found:
    <Descriptors: api_sink: Landroid/util/Log;.d:(Ljava/lang/String;Ljava/lang/String;)I 1>
    <Descriptors: api_sink: Landroid/util/Log;.d:(Ljava/lang/String;Ljava/lang/String;)I 0>
    <Descriptors: api_sink: Landroid/util/Log;.d:(Ljava/lang/String;Ljava/lang/String;)I 0>
    <Descriptors: api_sink: Landroid/util/Log;.d:(Ljava/lang/String;Ljava/lang/String;)I 1>
    <Descriptors: api_sink: Landroid/util/Log;.d:(Ljava/lang/String;Ljava/lang/String;)I 1>
    <Descriptors: api_sink: Landroid/util/Log;.d:(Ljava/lang/String;Ljava/lang/String;)I 1>
    <Descriptors: api_sink: Landroid/util/Log;.d:(Ljava/lang/String;Ljava/lang/String;)I 0>
    <Descriptors: api_sink: Landroid/util/Log;.d:(Ljava/lang/String;Ljava/lang/String;)I 1>
    <Descriptors: api_sink: Landroid/util/Log;.d:(Ljava/lang/String;Ljava/lang/String;)I 1>
    <Descriptors: api_sink: Landroid/util/Log;.d:(Ljava/lang/String;Ljava/lang/String;)I 0>
    <Descriptors: api_sink: Landroid/util/Log;.d:(Ljava/lang/String;Ljava/lang/String;)I 0>
    <Descriptors: api_sink: Landroid/app/Activity;.setResult:(ILandroid/content/Intent;)V 2>
    <Descriptors: api_sink: Landroid/util/Log;.d:(Ljava/lang/String;Ljava/lang/String;)I 0>
    <Descriptors: api_sink: Landroid/util/Log;.d:(Ljava/lang/String;Ljava/lang/String;)I 1>
    <Descriptors: api_sink: Landroid/util/Log;.d:(Ljava/lang/String;Ljava/lang/String;)I 0>
    <Descriptors: api_sink: Landroid/util/Log;.d:(Ljava/lang/String;Ljava/lang/String;)I 1>
    <Descriptors: api_sink: Landroid/util/Log;.d:(Ljava/lang/String;Ljava/lang/String;)I 0>
  Discovered taint paths are listed below:
