{
  "score": 5.0,
  "md5hash": "56b08c5133d41a8f1fa078d6d06e55bf",
  "results": [{
    "desc": "application is debuggable",
    "sourceStmt": "",
    "custom": "",
    "vulnKind": 3,
    "destMethod": "",
    "paths": [],
    "destStmt": "",
    "sourceMethod": ""
  }]
}