{
  "score": 5.0,
  "md5hash": "cbef5a1c1759b086426ec3a5d99b46d1",
  "results": [{
    "desc": "application is debuggable",
    "sourceStmt": "",
    "custom": "",
    "vulnKind": 3,
    "destMethod": "",
    "paths": [],
    "destStmt": "",
    "sourceMethod": ""
  }]
}