{
  "score": 5.0,
  "md5hash": "3128b6dce2274f8a6fa45244fbdea3bd",
  "results": [{
    "desc": "application is debuggable",
    "sourceStmt": "",
    "custom": "",
    "vulnKind": 3,
    "destMethod": "",
    "paths": [],
    "destStmt": "",
    "sourceMethod": ""
  }]
}