{
  "score": 5.0,
  "md5hash": "e619c3a4202474cfb3aa3437cd3f73c4",
  "results": [{
    "desc": "application is debuggable",
    "sourceStmt": "",
    "custom": "",
    "vulnKind": 3,
    "destMethod": "",
    "paths": [],
    "destStmt": "",
    "sourceMethod": ""
  }]
}